; Engine configuration file.
; It's best edited using the editor UI and not directly,
; since the parameters that go here are not all obvious.
;
; Format:
;   [section] ; section goes between []
;   param=value ; assign values to parameters

config_version=4

_global_script_classes=[ {
"base": "Camera",
"class": "EditorCamera",
"language": "GDScript",
"path": "res://source/editor/camera.gd"
}, {
"base": "Reference",
"class": "GPLReader",
"language": "GDScript",
"path": "res://addons/voxel-core/classes/readers/gpl.gd"
}, {
"base": "Reference",
"class": "ImageReader",
"language": "GDScript",
"path": "res://addons/voxel-core/classes/readers/image.gd"
}, {
"base": "Spatial",
"class": "MapObject",
"language": "GDScript",
"path": "res://source/runtime/map_object_node.gd"
}, {
"base": "Reference",
"class": "Reader",
"language": "GDScript",
"path": "res://addons/voxel-core/classes/reader.gd"
}, {
"base": "Reference",
"class": "VarReader",
"language": "GDScript",
"path": "res://addons/voxel-core/classes/readers/var.gd"
}, {
"base": "Reference",
"class": "VoxReader",
"language": "GDScript",
"path": "res://addons/voxel-core/classes/readers/vox.gd"
}, {
"base": "Object",
"class": "Voxel",
"language": "GDScript",
"path": "res://addons/voxel-core/classes/voxel.gd"
}, {
"base": "EditorImportPlugin",
"class": "VoxelImporter",
"language": "GDScript",
"path": "res://addons/voxel-core/engine/importers/voxel_importer.gd"
}, {
"base": "MeshInstance",
"class": "VoxelMesh",
"language": "GDScript",
"path": "res://addons/voxel-core/classes/voxel_mesh.gd"
}, {
"base": "Resource",
"class": "VoxelSet",
"language": "GDScript",
"path": "res://addons/voxel-core/classes/voxel_set.gd"
}, {
"base": "Reference",
"class": "VoxelTool",
"language": "GDScript",
"path": "res://addons/voxel-core/classes/voxel_tool.gd"
} ]
_global_script_class_icons={
"EditorCamera": "",
"GPLReader": "",
"ImageReader": "res://addons/voxel-core/assets/logos/MagicaVoxel.png",
"MapObject": "",
"Reader": "",
"VarReader": "",
"VoxReader": "res://addons/voxel-core/assets/logos/MagicaVoxel.png",
"Voxel": "res://addons/voxel-core/assets/classes/voxel.png",
"VoxelImporter": "",
"VoxelMesh": "res://addons/voxel-core/assets/classes/voxel_mesh.png",
"VoxelSet": "res://addons/voxel-core/assets/classes/voxel_set.png",
"VoxelTool": ""
}

[application]

config/name="Dorimu"
run/main_scene="res://source/main.tscn"
config/use_hidden_project_data_directory=false
run/low_processor_mode=true
boot_splash/fullsize=false
boot_splash/use_filter=false
boot_splash/bg_color=Color( 0, 0, 0, 1 )
config/icon="res://icon.png"

[autoload]

Network="*res://source/runtime/netcode/network.gd"
Global="*res://source/runtime/netcode/global.gd"

[editor_plugins]

enabled=PoolStringArray( "res://addons/voxel-core/plugin.cfg" )

[global]

animation=true

[input]

camera_button={
"deadzone": 0.5,
"events": [ Object(InputEventMouseButton,"resource_local_to_scene":false,"resource_name":"","device":0,"alt":false,"shift":false,"control":false,"meta":false,"command":false,"button_mask":0,"position":Vector2( 0, 0 ),"global_position":Vector2( 0, 0 ),"factor":1.0,"button_index":2,"pressed":false,"doubleclick":false,"script":null)
, Object(InputEventJoypadMotion,"resource_local_to_scene":false,"resource_name":"","device":0,"axis":2,"axis_value":-1.0,"script":null)
, Object(InputEventJoypadMotion,"resource_local_to_scene":false,"resource_name":"","device":0,"axis":2,"axis_value":1.0,"script":null)
, Object(InputEventJoypadMotion,"resource_local_to_scene":false,"resource_name":"","device":0,"axis":3,"axis_value":-1.0,"script":null)
, Object(InputEventJoypadMotion,"resource_local_to_scene":false,"resource_name":"","device":0,"axis":3,"axis_value":1.0,"script":null)
 ]
}
move_forward={
"deadzone": 0.5,
"events": [ Object(InputEventKey,"resource_local_to_scene":false,"resource_name":"","device":0,"alt":false,"shift":false,"control":false,"meta":false,"command":false,"pressed":false,"scancode":87,"physical_scancode":0,"unicode":0,"echo":false,"script":null)
, Object(InputEventJoypadMotion,"resource_local_to_scene":false,"resource_name":"","device":0,"axis":1,"axis_value":-1.0,"script":null)
 ]
}
move_backward={
"deadzone": 0.5,
"events": [ Object(InputEventKey,"resource_local_to_scene":false,"resource_name":"","device":0,"alt":false,"shift":false,"control":false,"meta":false,"command":false,"pressed":false,"scancode":83,"physical_scancode":0,"unicode":0,"echo":false,"script":null)
, Object(InputEventJoypadMotion,"resource_local_to_scene":false,"resource_name":"","device":0,"axis":1,"axis_value":1.0,"script":null)
 ]
}
move_left={
"deadzone": 0.5,
"events": [ Object(InputEventKey,"resource_local_to_scene":false,"resource_name":"","device":0,"alt":false,"shift":false,"control":false,"meta":false,"command":false,"pressed":false,"scancode":65,"physical_scancode":0,"unicode":0,"echo":false,"script":null)
, Object(InputEventJoypadMotion,"resource_local_to_scene":false,"resource_name":"","device":0,"axis":0,"axis_value":-1.0,"script":null)
 ]
}
move_right={
"deadzone": 0.5,
"events": [ Object(InputEventKey,"resource_local_to_scene":false,"resource_name":"","device":0,"alt":false,"shift":false,"control":false,"meta":false,"command":false,"pressed":false,"scancode":68,"physical_scancode":0,"unicode":0,"echo":false,"script":null)
, Object(InputEventJoypadMotion,"resource_local_to_scene":false,"resource_name":"","device":0,"axis":0,"axis_value":1.0,"script":null)
 ]
}
jump={
"deadzone": 0.5,
"events": [ Object(InputEventKey,"resource_local_to_scene":false,"resource_name":"","device":0,"alt":false,"shift":false,"control":false,"meta":false,"command":false,"pressed":false,"scancode":32,"physical_scancode":0,"unicode":0,"echo":false,"script":null)
 ]
}

[physics]

common/enable_pause_aware_picking=true

[rendering]

quality/driver/driver_name="GLES2"
vram_compression/import_etc=true
vram_compression/import_etc2=false
environment/default_environment="res://main_env.tres"
