[gd_resource type="Animation" format=2]

[resource]
resource_name = "Run"
length = 0.733333
loop = true
tracks/0/type = "transform"
tracks/0/path = NodePath("Character/Skeleton:mixamorig_Head")
tracks/0/interp = 1
tracks/0/loop_wrap = true
tracks/0/imported = false
tracks/0/enabled = true
tracks/0/keys = PoolRealArray( 0, 1, 1.78814e-07, -2.38419e-07, -1.90735e-06, -0.169678, -0.0524724, -0.0635666, 0.982047, 1, 1, 1, 0.0666667, 1, 1.78814e-07, -2.38419e-07, -1.90735e-06, -0.148924, -0.0888549, -0.0565933, 0.983221, 1, 1, 1, 0.133333, 1, 1.78814e-07, -2.38419e-07, -1.90735e-06, -0.106605, -0.156011, -0.0393216, 0.981198, 1, 1, 1, 0.2, 1, 1.78814e-07, -2.38419e-07, -1.90735e-06, -0.109133, -0.153081, -0.0459491, 0.981094, 1, 1, 1, 0.266667, 1, 1.78814e-07, -2.38419e-07, -1.90735e-06, -0.104555, -0.147353, -0.00901466, 0.983501, 1, 1, 1, 0.333333, 1, 1.78814e-07, -2.38419e-07, -1.90735e-06, -0.163549, -0.0889088, 0.0193927, 0.982329, 1, 1, 1, 0.4, 1, 1.78814e-07, -2.38419e-07, -1.90735e-06, -0.177418, -0.00849269, 0.00311124, 0.984094, 1, 1, 1, 0.466667, 1, 1.78814e-07, -2.38419e-07, -1.90735e-06, -0.132979, 0.0810888, -0.0248423, 0.987484, 1, 1, 1, 0.533333, 1, 1.78814e-07, -2.38419e-07, -1.90735e-06, -0.136938, 0.121274, -0.0436944, 0.982157, 1, 1, 1, 0.6, 1, 1.78814e-07, -2.38419e-07, -1.90735e-06, -0.15137, 0.101211, -0.0694146, 0.980829, 1, 1, 1, 0.666667, 1, 1.78814e-07, -2.38419e-07, -1.90735e-06, -0.179933, 0.036899, -0.0652252, 0.98082, 1, 1, 1, 0.733333, 1, 1.78814e-07, -2.38419e-07, -1.90735e-06, -0.169678, -0.0524724, -0.0635666, 0.982047, 1, 1, 1 )
tracks/1/type = "transform"
tracks/1/path = NodePath("Character/Skeleton:mixamorig_Neck")
tracks/1/interp = 1
tracks/1/loop_wrap = true
tracks/1/imported = false
tracks/1/enabled = true
tracks/1/keys = PoolRealArray( 0, 1, -8.04663e-07, -7.62939e-06, -4.17233e-06, -0.0408249, -0.0357583, 0.00946844, 0.998481, 1, 1, 1, 0.0666667, 1, -8.04663e-07, -7.62939e-06, -4.17233e-06, -0.0416711, -0.046777, 0.00417444, 0.998027, 1, 1, 1, 0.133333, 1, -8.04663e-07, -7.62939e-06, -4.17233e-06, -0.02346, -0.0719446, 0.00858529, 0.997096, 1, 1, 1, 0.2, 1, -8.04663e-07, -7.62939e-06, -4.17233e-06, 0.0123815, -0.0783499, 0.0244776, 0.996548, 1, 1, 1, 0.266667, 1, -8.04663e-07, -7.62939e-06, -4.17233e-06, 0.00219712, -0.067591, 0.015153, 0.997596, 1, 1, 1, 0.333333, 1, -8.04663e-07, -7.62939e-06, -4.17233e-06, -0.029042, -0.0471921, 0.0269406, 0.9981, 1, 1, 1, 0.4, 1, -8.04663e-07, -7.62939e-06, -4.17233e-06, -0.0479916, -0.0177508, 0.0308893, 0.998212, 1, 1, 1, 0.466667, 1, -8.04663e-07, -7.62939e-06, -4.17233e-06, -0.0539909, 0.0237732, 0.00802786, 0.998226, 1, 1, 1, 0.533333, 1, -8.04663e-07, -7.62939e-06, -4.17233e-06, -0.0671431, 0.0393533, 0.00215937, 0.996965, 1, 1, 1, 0.6, 1, -8.04663e-07, -7.62939e-06, -4.17233e-06, -0.0498879, 0.0314758, -0.00568447, 0.998243, 1, 1, 1, 0.666667, 1, -8.04663e-07, -7.62939e-06, -4.17233e-06, -0.0578616, 0.00869206, -0.0125769, 0.998208, 1, 1, 1, 0.733333, 1, -8.04663e-07, -7.62939e-06, -4.17233e-06, -0.0408249, -0.0357583, 0.00946844, 0.998481, 1, 1, 1 )
tracks/2/type = "transform"
tracks/2/path = NodePath("Character/Skeleton:mixamorig_LeftHandIndex3")
tracks/2/interp = 1
tracks/2/loop_wrap = true
tracks/2/imported = false
tracks/2/enabled = true
tracks/2/keys = PoolRealArray( 0, 1, -9.38773e-07, -8.10623e-06, -3.45707e-06, -0.149086, -0.0212496, 0.0183062, 0.988426, 1, 1, 1, 0.733333, 1, -1.46031e-06, -9.53674e-07, 2.26498e-06, -0.149086, -0.0212496, 0.0183062, 0.988426, 1, 1, 1 )
tracks/3/type = "transform"
tracks/3/path = NodePath("Character/Skeleton:mixamorig_LeftHandIndex2")
tracks/3/interp = 1
tracks/3/loop_wrap = true
tracks/3/imported = false
tracks/3/enabled = true
tracks/3/keys = PoolRealArray( 0, 1, 4.81308e-06, -8.34465e-07, -1.66893e-06, 0.424907, 0.0400781, 0.0900298, 0.899857, 1, 1, 1, 0.0666667, 1, 4.30644e-06, -1.43051e-06, -1.3113e-06, 0.413149, 0.0393341, 0.089016, 0.905448, 1, 1, 1, 0.133333, 1, 3.32296e-06, -2.74181e-06, -5.96046e-07, 0.350549, 0.0353407, 0.0834667, 0.932148, 1, 1, 1, 0.2, 1, 2.35438e-06, -4.05312e-06, 2.38419e-07, 0.309149, 0.0326673, 0.0796664, 0.947108, 1, 1, 1, 0.266667, 1, 1.37091e-06, -5.36442e-06, 1.19209e-06, 0.320952, 0.0334314, 0.0807599, 0.943054, 1, 1, 1, 0.333333, 1, 3.8743e-07, -6.55651e-06, 1.90735e-06, 0.34963, 0.0352807, 0.0833826, 0.932503, 1, 1, 1, 0.466667, 1, -1.59442e-06, -9.17912e-06, 3.57628e-06, 0.417684, 0.0396188, 0.089406, 0.903314, 1, 1, 1, 0.533333, 1, -2.5928e-06, -1.04904e-05, 4.41074e-06, 0.438206, 0.0409126, 0.0911636, 0.893303, 1, 1, 1, 0.6, 1, -3.57628e-06, -1.18017e-05, 5.24521e-06, 0.439501, 0.0409947, 0.0912739, 0.892652, 1, 1, 1, 0.666667, 1, -4.55976e-06, -1.3113e-05, 6.07967e-06, 0.430654, 0.0404396, 0.0905215, 0.897055, 1, 1, 1, 0.733333, 1, -5.55813e-06, -1.44243e-05, 6.79493e-06, 0.424907, 0.0400782, 0.0900298, 0.899857, 1, 1, 1 )
tracks/4/type = "transform"
tracks/4/path = NodePath("Character/Skeleton:mixamorig_LeftHandIndex1")
tracks/4/interp = 1
tracks/4/loop_wrap = true
tracks/4/imported = false
tracks/4/enabled = true
tracks/4/keys = PoolRealArray( 0, 1, -3.69549e-06, 4.76837e-06, -5.72205e-06, 0.474563, 0.0189778, 0.0663663, 0.877511, 1, 1, 1, 0.0666667, 1, -3.57628e-06, 4.76837e-06, -5.72205e-06, 0.463077, 0.0187233, 0.0654783, 0.883698, 1, 1, 1, 0.133333, 1, -3.09944e-06, 4.76837e-06, -5.96046e-06, 0.401751, 0.01734, 0.0606544, 0.913574, 1, 1, 1, 0.2, 1, -2.74181e-06, 4.76837e-06, -5.96046e-06, 0.36105, 0.0164012, 0.057381, 0.930635, 1, 1, 1, 0.266667, 1, -2.5034e-06, 5.72205e-06, -6.19888e-06, 0.372664, 0.0166705, 0.0583209, 0.925982, 1, 1, 1, 0.333333, 1, -2.14577e-06, 5.72205e-06, -6.19888e-06, 0.400849, 0.0173192, 0.0605827, 0.913975, 1, 1, 1, 0.466667, 1, -1.43051e-06, 5.72205e-06, -6.19888e-06, 0.467506, 0.0188214, 0.0658209, 0.881335, 1, 1, 1, 0.533333, 1, -1.07288e-06, 5.72205e-06, -6.19888e-06, 0.487541, 0.0192638, 0.0673627, 0.870284, 1, 1, 1, 0.6, 1, -7.15256e-07, 6.67572e-06, -6.4373e-06, 0.488804, 0.0192912, 0.0674599, 0.869568, 1, 1, 1, 0.666667, 1, -3.57628e-07, 6.67572e-06, -6.4373e-06, 0.480173, 0.0191017, 0.0667981, 0.874418, 1, 1, 1, 0.733333, 1, 0, 6.67572e-06, -6.4373e-06, 0.474562, 0.0189914, 0.0663821, 0.87751, 1, 1, 1 )
tracks/5/type = "transform"
tracks/5/path = NodePath("Character/Skeleton:mixamorig_LeftHand")
tracks/5/interp = 1
tracks/5/loop_wrap = true
tracks/5/imported = false
tracks/5/enabled = true
tracks/5/keys = PoolRealArray( 0, 1, -5.72205e-06, -9.53674e-06, 5.24521e-06, -0.132523, 0.0564734, 0.288596, 0.946552, 1, 1, 1, 0.0666667, 1, -5.72205e-06, -9.53674e-06, 5.24521e-06, -0.132845, 0.0761087, 0.286008, 0.945917, 1, 1, 1, 0.133333, 1, -5.24521e-06, -7.62939e-06, 4.76837e-06, -0.137051, 0.0825322, 0.287616, 0.944289, 1, 1, 1, 0.2, 1, -4.76837e-06, -7.62939e-06, 4.76837e-06, -0.136172, 0.065634, 0.293171, 0.944034, 1, 1, 1, 0.266667, 1, -3.8147e-06, -7.62939e-06, 4.76837e-06, -0.130638, 0.0329917, 0.305583, 0.942584, 1, 1, 1, 0.333333, 1, -3.8147e-06, -5.72205e-06, 4.29153e-06, -0.142163, -0.00480919, 0.32308, 0.935621, 1, 1, 1, 0.4, 1, -2.86102e-06, -3.8147e-06, 4.29153e-06, -0.162918, -0.0195169, 0.334784, 0.927899, 1, 1, 1, 0.466667, 1, -2.38419e-06, -3.8147e-06, 4.29153e-06, -0.160225, -0.0176883, 0.340281, 0.926404, 1, 1, 1, 0.533333, 1, -1.90735e-06, -1.90735e-06, 4.29153e-06, -0.140143, -0.0127067, 0.339699, 0.929948, 1, 1, 1, 0.6, 1, -1.43051e-06, -1.90735e-06, 4.29153e-06, -0.127734, 0.00699889, 0.330122, 0.93523, 1, 1, 1, 0.666667, 1, -9.53674e-07, 0, 3.8147e-06, -0.140533, 0.0233934, 0.321488, 0.936135, 1, 1, 1, 0.733333, 1, -4.76837e-07, 0, 3.8147e-06, -0.132523, 0.0564734, 0.288596, 0.946552, 1, 1, 1 )
tracks/6/type = "transform"
tracks/6/path = NodePath("Character/Skeleton:mixamorig_LeftForeArm")
tracks/6/interp = 1
tracks/6/loop_wrap = true
tracks/6/imported = false
tracks/6/enabled = true
tracks/6/keys = PoolRealArray( 0, 1, -1.14441e-05, -3.8147e-06, -7.62939e-06, 0.0856846, 0.0503341, 0.603962, 0.790794, 1, 1, 1, 0.0666667, 1, -1.14441e-05, -3.8147e-06, -7.62939e-06, 0.0886251, 0.0782298, 0.554356, 0.823842, 1, 1, 1, 0.133333, 1, -1.14441e-05, -3.8147e-06, -7.62939e-06, 0.083965, 0.125118, 0.453742, 0.878302, 1, 1, 1, 0.2, 1, -1.14441e-05, -3.8147e-06, -7.62939e-06, 0.084033, 0.138695, 0.412362, 0.896471, 1, 1, 1, 0.266667, 1, -1.14441e-05, -3.8147e-06, -7.62939e-06, 0.104355, 0.119308, 0.424854, 0.891277, 1, 1, 1, 0.333333, 1, -1.14441e-05, -3.8147e-06, -7.62939e-06, 0.11346, 0.0771871, 0.451864, 0.881469, 1, 1, 1, 0.4, 1, -1.14441e-05, -3.8147e-06, -7.62939e-06, 0.0853493, 0.0278515, 0.514608, 0.852712, 1, 1, 1, 0.466667, 1, -1.14441e-05, -3.8147e-06, -7.62939e-06, 0.0435569, -0.0144431, 0.616695, 0.785864, 1, 1, 1, 0.533333, 1, -1.14441e-05, -3.8147e-06, -7.62939e-06, 0.0216812, -0.0330746, 0.695281, 0.717649, 1, 1, 1, 0.6, 1, -1.14441e-05, -3.8147e-06, -7.62939e-06, 0.040135, -0.0267284, 0.716044, 0.696388, 1, 1, 1, 0.666667, 1, -1.14441e-05, -3.8147e-06, -7.62939e-06, 0.0817769, -0.00475945, 0.673361, 0.734762, 1, 1, 1, 0.733333, 1, -1.14441e-05, -3.8147e-06, -7.62939e-06, 0.0856844, 0.0503342, 0.603962, 0.790794, 1, 1, 1 )
tracks/7/type = "transform"
tracks/7/path = NodePath("Character/Skeleton:mixamorig_LeftArm")
tracks/7/interp = 1
tracks/7/loop_wrap = true
tracks/7/imported = false
tracks/7/enabled = true
tracks/7/keys = PoolRealArray( 0, 1, 4.76837e-07, 4.76837e-07, -1.90735e-06, 0.00528202, -0.264797, -0.275156, 0.924199, 1, 1, 1, 0.0666667, 1, 4.76837e-07, 4.76837e-07, -1.90735e-06, -0.0172608, -0.266022, -0.301592, 0.91541, 1, 1, 1, 0.133333, 1, 4.76837e-07, 4.76837e-07, -1.90735e-06, -0.0820799, -0.235149, -0.341304, 0.906355, 1, 1, 1, 0.2, 1, 4.76837e-07, 4.76837e-07, -1.90735e-06, -0.126819, -0.205868, -0.352398, 0.904074, 1, 1, 1, 0.266667, 1, 4.76837e-07, 4.76837e-07, -1.90735e-06, -0.153813, -0.206937, -0.274335, 0.926423, 1, 1, 1, 0.333333, 1, 4.76837e-07, 4.76837e-07, -1.90735e-06, -0.148441, -0.217834, -0.11483, 0.957772, 1, 1, 1, 0.4, 1, 4.76837e-07, 4.76837e-07, -1.90735e-06, -0.121109, -0.233397, -0.0201465, 0.9646, 1, 1, 1, 0.466667, 1, 4.76837e-07, 4.76837e-07, -1.90735e-06, -0.138605, -0.270098, -0.011478, 0.952735, 1, 1, 1, 0.533333, 1, 4.76837e-07, 4.76837e-07, -1.90735e-06, -0.15387, -0.295845, -0.031866, 0.942223, 1, 1, 1, 0.6, 1, 4.76837e-07, 4.76837e-07, -1.90735e-06, -0.116799, -0.289267, -0.102404, 0.944561, 1, 1, 1, 0.666667, 1, 4.76837e-07, 4.76837e-07, -1.90735e-06, -0.0506522, -0.262313, -0.192394, 0.944251, 1, 1, 1, 0.733333, 1, 4.76837e-07, 4.76837e-07, -1.90735e-06, 0.00528202, -0.264797, -0.275156, 0.924199, 1, 1, 1 )
tracks/8/type = "transform"
tracks/8/path = NodePath("Character/Skeleton:mixamorig_LeftShoulder")
tracks/8/interp = 1
tracks/8/loop_wrap = true
tracks/8/imported = false
tracks/8/enabled = true
tracks/8/keys = PoolRealArray( 0, 1, 2.38419e-07, -4.76837e-07, 8.58307e-06, 0.0749055, 0.0329353, 0.068187, 0.994311, 1, 1, 1, 0.0666667, 1, 2.38419e-07, -4.76837e-07, 8.58307e-06, 0.0700828, 0.0310559, 0.0609574, 0.995193, 1, 1, 1, 0.133333, 1, 2.38419e-07, -4.76837e-07, 8.58307e-06, 0.057563, 0.0264697, 0.0446389, 0.996992, 1, 1, 1, 0.2, 1, 2.38419e-07, -4.76837e-07, 8.58307e-06, 0.0542122, 0.0242952, 0.0376837, 0.997522, 1, 1, 1, 0.266667, 1, 2.38419e-07, -4.76837e-07, 8.58307e-06, 0.0724496, 0.0295788, 0.0551987, 0.995404, 1, 1, 1, 0.333333, 1, 2.38419e-07, -4.76837e-07, 8.58307e-06, 0.0891427, 0.0386212, 0.0885475, 0.991323, 1, 1, 1, 0.4, 1, 2.38419e-07, -4.76837e-07, 8.58307e-06, 0.0868478, 0.0443825, 0.110143, 0.989119, 1, 1, 1, 0.466667, 1, 2.38419e-07, -4.76837e-07, 8.58307e-06, 0.085576, 0.0442156, 0.109127, 0.98935, 1, 1, 1, 0.533333, 1, 2.38419e-07, -4.76837e-07, 8.58307e-06, 0.0895278, 0.0433637, 0.105912, 0.989387, 1, 1, 1, 0.6, 1, 2.38419e-07, -4.76837e-07, 8.58307e-06, 0.091947, 0.0436911, 0.10718, 0.989014, 1, 1, 1, 0.666667, 1, 2.38419e-07, -4.76837e-07, 8.58307e-06, 0.0864801, 0.0407002, 0.0961052, 0.990772, 1, 1, 1, 0.733333, 1, 2.38419e-07, -4.76837e-07, 8.58307e-06, 0.0749055, 0.0329353, 0.068187, 0.994311, 1, 1, 1 )
tracks/9/type = "transform"
tracks/9/path = NodePath("Character/Skeleton:mixamorig_RightHandIndex3")
tracks/9/interp = 1
tracks/9/loop_wrap = true
tracks/9/imported = false
tracks/9/enabled = true
tracks/9/keys = PoolRealArray( 0, 1, -1.04308e-06, -7.86781e-06, -1.3113e-06, -0.0417803, -0.0223259, 0.0522354, 0.997511, 1, 1, 1, 0.466667, 1, 3.27826e-07, 1.90735e-06, -2.08616e-06, -0.0417803, -0.0223259, 0.0522354, 0.997511, 1, 1, 1, 0.733333, 1, 1.2219e-06, 7.62939e-06, -2.5034e-06, -0.0417803, -0.0223259, 0.0522354, 0.997511, 1, 1, 1 )
tracks/10/type = "transform"
tracks/10/path = NodePath("Character/Skeleton:mixamorig_RightHandIndex2")
tracks/10/interp = 1
tracks/10/loop_wrap = true
tracks/10/imported = false
tracks/10/enabled = true
tracks/10/keys = PoolRealArray( 0, 1, -1.19209e-07, -2.5034e-06, -3.45707e-06, 0.154198, 0.192342, -0.386032, 0.888936, 1, 1, 1, 0.0666667, 1, -1.78814e-07, -2.74181e-06, -3.45707e-06, 0.156929, 0.195, -0.390877, 0.885756, 1, 1, 1, 0.2, 1, -6.55651e-07, -3.57628e-06, -3.45707e-06, 0.184333, 0.221579, -0.439183, 0.850907, 1, 1, 1, 0.266667, 1, -8.34465e-07, -4.05312e-06, -3.21865e-06, 0.181673, 0.219009, -0.43452, 0.854531, 1, 1, 1, 0.333333, 1, -1.01328e-06, -4.47035e-06, -3.21865e-06, 0.169167, 0.206895, -0.412517, 0.870865, 1, 1, 1, 0.466667, 1, -1.43051e-06, -5.36442e-06, -3.09944e-06, 0.135057, 0.173635, -0.351916, 0.909817, 1, 1, 1, 0.533333, 1, -1.60933e-06, -5.78165e-06, -2.98023e-06, 0.123969, 0.162758, -0.332042, 0.920809, 1, 1, 1, 0.6, 1, -1.78814e-06, -6.25849e-06, -2.98023e-06, 0.12568, 0.164439, -0.335115, 0.919164, 1, 1, 1, 0.666667, 1, -2.02656e-06, -6.67572e-06, -2.86102e-06, 0.143081, 0.181489, -0.36625, 0.901361, 1, 1, 1, 0.733333, 1, -2.20537e-06, -7.03335e-06, -2.74181e-06, 0.154198, 0.192341, -0.386033, 0.888936, 1, 1, 1 )
tracks/11/type = "transform"
tracks/11/path = NodePath("Character/Skeleton:mixamorig_RightHandIndex1")
tracks/11/interp = 1
tracks/11/loop_wrap = true
tracks/11/imported = false
tracks/11/enabled = true
tracks/11/keys = PoolRealArray( 0, 1, -5.36442e-07, 2.86102e-06, -6.67572e-06, 0.196193, -0.0635109, -0.473651, 0.85623, 1, 1, 1, 0.0666667, 1, -3.57628e-07, 2.86102e-06, -6.67572e-06, 0.198267, -0.0642243, -0.479154, 0.85263, 1, 1, 1, 0.2, 1, 2.38419e-07, 2.86102e-06, -5.72205e-06, 0.218877, -0.0713229, -0.533971, 0.813561, 1, 1, 1, 0.266667, 1, 5.96046e-07, 2.38419e-06, -5.72205e-06, 0.216895, -0.0706396, -0.528687, 0.817592, 1, 1, 1, 0.333333, 1, 8.9407e-07, 1.43051e-06, -4.76837e-06, 0.207522, -0.0674092, -0.503737, 0.835847, 1, 1, 1, 0.466667, 1, 1.54972e-06, 1.43051e-06, -3.8147e-06, 0.181543, -0.0584771, -0.434831, 0.880082, 1, 1, 1, 0.533333, 1, 1.84774e-06, 1.43051e-06, -3.8147e-06, 0.172975, -0.0555375, -0.41218, 0.892806, 1, 1, 1, 0.6, 1, 2.14577e-06, 4.76837e-07, -3.8147e-06, 0.174301, -0.0559924, -0.415684, 0.890893, 1, 1, 1, 0.666667, 1, 2.44379e-06, 9.53674e-07, -2.86102e-06, 0.187706, -0.0605938, -0.45115, 0.870378, 1, 1, 1, 0.733333, 1, 2.80142e-06, 4.76837e-07, -1.90735e-06, 0.196193, -0.063511, -0.473651, 0.85623, 1, 1, 1 )
tracks/12/type = "transform"
tracks/12/path = NodePath("Character/Skeleton:mixamorig_RightHand")
tracks/12/interp = 1
tracks/12/loop_wrap = true
tracks/12/imported = false
tracks/12/enabled = true
tracks/12/keys = PoolRealArray( 0, 1, 4.76837e-07, -3.8147e-06, 3.93391e-06, 0.0128368, -0.017933, -0.178226, 0.983742, 1, 1, 1, 0.0666667, 1, 7.15256e-07, -3.8147e-06, 3.93391e-06, 0.0102864, -0.0140318, -0.189318, 0.981762, 1, 1, 1, 0.133333, 1, 1.43051e-06, -1.90735e-06, 3.93391e-06, 0.0565637, 0.035606, -0.281203, 0.957318, 1, 1, 1, 0.2, 1, 2.14577e-06, -1.90735e-06, 3.93391e-06, 0.0981442, 0.00427378, -0.358647, 0.92829, 1, 1, 1, 0.266667, 1, 2.6226e-06, -1.90735e-06, 3.93391e-06, 0.0814586, -0.0111344, -0.381235, 0.920815, 1, 1, 1, 0.333333, 1, 3.33786e-06, 0, 3.93391e-06, 0.0669961, 0.00142285, -0.336481, 0.939303, 1, 1, 1, 0.4, 1, 3.8147e-06, 0, 3.93391e-06, 0.0237504, 0.00640353, -0.334531, 0.942064, 1, 1, 1, 0.466667, 1, 4.29153e-06, 0, 3.93391e-06, 0.0529087, 0.0109765, -0.289629, 0.955612, 1, 1, 1, 0.533333, 1, 5.00679e-06, 1.90735e-06, 3.99351e-06, 0.0573929, -0.0173965, -0.259331, 0.963925, 1, 1, 1, 0.6, 1, 5.48363e-06, 1.90735e-06, 3.93391e-06, 0.0431513, -0.0380257, -0.229151, 0.97169, 1, 1, 1, 0.666667, 1, 6.19888e-06, 3.8147e-06, 4.05312e-06, 0.0692006, -0.0194046, -0.215035, 0.973958, 1, 1, 1, 0.733333, 1, 6.67572e-06, 3.8147e-06, 3.99351e-06, 0.0128369, -0.0179329, -0.178227, 0.983742, 1, 1, 1 )
tracks/13/type = "transform"
tracks/13/path = NodePath("Character/Skeleton:mixamorig_RightForeArm")
tracks/13/interp = 1
tracks/13/loop_wrap = true
tracks/13/imported = false
tracks/13/enabled = true
tracks/13/keys = PoolRealArray( 0, 1, -1.90735e-06, 3.8147e-06, 3.78489e-06, 0.0481206, 0.00198385, -0.514197, 0.856319, 1, 1, 1, 0.0666667, 1, -1.90735e-06, 3.8147e-06, 3.60608e-06, 0.039489, 0.0172316, -0.536814, 0.8426, 1, 1, 1, 0.133333, 1, -9.53674e-07, 3.8147e-06, 3.24845e-06, 0.0563706, 0.0629569, -0.602679, 0.793496, 1, 1, 1, 0.2, 1, -9.53674e-07, 3.8147e-06, 2.86102e-06, 0.0628275, 0.0443399, -0.633436, 0.769964, 1, 1, 1, 0.266667, 1, 0, 1.90735e-06, 2.5332e-06, 0.0669543, 0.033062, -0.621265, 0.780035, 1, 1, 1, 0.333333, 1, 9.53674e-07, 1.90735e-06, 2.14577e-06, 0.0703387, 0.000556276, -0.494566, 0.866289, 1, 1, 1, 0.4, 1, 9.53674e-07, 3.8147e-06, 1.78814e-06, 0.10309, -0.0400666, -0.392108, 0.913246, 1, 1, 1, 0.466667, 1, 9.53674e-07, 3.8147e-06, 1.43051e-06, 0.121096, -0.049792, -0.427459, 0.894503, 1, 1, 1, 0.533333, 1, 1.90735e-06, 3.8147e-06, 1.04308e-06, 0.102059, -0.0556612, -0.452861, 0.88397, 1, 1, 1, 0.6, 1, 2.86102e-06, 1.90735e-06, 7.45058e-07, 0.0905734, -0.0521761, -0.492217, 0.864174, 1, 1, 1, 0.666667, 1, 2.86102e-06, 1.90735e-06, 3.57628e-07, 0.0767204, -0.02719, -0.493116, 0.866147, 1, 1, 1, 0.733333, 1, 3.8147e-06, 1.90735e-06, 0, 0.0481206, 0.00198376, -0.514197, 0.856319, 1, 1, 1 )
tracks/14/type = "transform"
tracks/14/path = NodePath("Character/Skeleton:mixamorig_RightArm")
tracks/14/interp = 1
tracks/14/loop_wrap = true
tracks/14/imported = false
tracks/14/enabled = true
tracks/14/keys = PoolRealArray( 0, 1, 0, 7.15256e-06, 3.8147e-06, -0.15009, 0.250204, 0.194074, 0.936593, 1, 1, 1, 0.0666667, 1, 0, 7.15256e-06, 3.8147e-06, -0.163792, 0.245223, 0.136143, 0.945782, 1, 1, 1, 0.133333, 1, 0, 7.15256e-06, 3.8147e-06, -0.170963, 0.244966, 0.116576, 0.947192, 1, 1, 1, 0.2, 1, 0, 7.15256e-06, 3.8147e-06, -0.181068, 0.227112, 0.11427, 0.95004, 1, 1, 1, 0.266667, 1, 0, 7.15256e-06, 3.8147e-06, -0.148735, 0.236197, 0.179744, 0.943282, 1, 1, 1, 0.333333, 1, 0, 7.15256e-06, 3.8147e-06, -0.100977, 0.243816, 0.233151, 0.935948, 1, 1, 1, 0.4, 1, 0, 7.15256e-06, 3.8147e-06, -0.115364, 0.256562, 0.311917, 0.90751, 1, 1, 1, 0.466667, 1, 0, 7.15256e-06, 3.8147e-06, -0.156835, 0.279293, 0.434302, 0.841891, 1, 1, 1, 0.533333, 1, 0, 7.15256e-06, 3.8147e-06, -0.136952, 0.288607, 0.463704, 0.826395, 1, 1, 1, 0.6, 1, 0, 7.15256e-06, 3.8147e-06, -0.124512, 0.278603, 0.43619, 0.846532, 1, 1, 1, 0.666667, 1, 0, 7.15256e-06, 3.8147e-06, -0.142732, 0.255143, 0.318401, 0.901749, 1, 1, 1, 0.733333, 1, 0, 7.15256e-06, 3.8147e-06, -0.15009, 0.250204, 0.194074, 0.936593, 1, 1, 1 )
tracks/15/type = "transform"
tracks/15/path = NodePath("Character/Skeleton:mixamorig_RightShoulder")
tracks/15/interp = 1
tracks/15/loop_wrap = true
tracks/15/imported = false
tracks/15/enabled = true
tracks/15/keys = PoolRealArray( 0, 1, -7.80821e-06, 2.38419e-06, -6.67572e-06, 0.115325, -0.00531331, -0.0305865, 0.992843, 1, 1, 1, 0.0666667, 1, -7.80821e-06, 2.38419e-06, -6.67572e-06, 0.105051, -0.00990497, -0.0435563, 0.993463, 1, 1, 1, 0.133333, 1, -7.80821e-06, 2.38419e-06, -6.67572e-06, 0.109413, -0.00998174, -0.0454953, 0.992904, 1, 1, 1, 0.2, 1, -7.80821e-06, 2.38419e-06, -6.67572e-06, 0.103906, -0.0134375, -0.056124, 0.992912, 1, 1, 1, 0.266667, 1, -7.80821e-06, 2.38419e-06, -6.67572e-06, 0.101618, -0.0113199, -0.047606, 0.993619, 1, 1, 1, 0.333333, 1, -7.80821e-06, 2.38419e-06, -6.67572e-06, 0.10354, -0.00604041, -0.0291747, 0.994179, 1, 1, 1, 0.4, 1, -7.80821e-06, 2.38419e-06, -6.67572e-06, 0.110243, 0.00148675, -0.00435687, 0.993894, 1, 1, 1, 0.466667, 1, -7.80821e-06, 2.38419e-06, -6.67572e-06, 0.0842607, 0.00304171, 0.00972742, 0.996392, 1, 1, 1, 0.533333, 1, -7.80821e-06, 2.38419e-06, -6.67572e-06, 0.0621589, 0.00917382, 0.0383048, 0.997289, 1, 1, 1, 0.6, 1, -7.80821e-06, 2.38419e-06, -6.67572e-06, 0.0776312, 0.00911397, 0.0329421, 0.996396, 1, 1, 1, 0.666667, 1, -7.80821e-06, 2.38419e-06, -6.67572e-06, 0.11006, 0.00637839, 0.0128281, 0.993822, 1, 1, 1, 0.733333, 1, -7.80821e-06, 2.38419e-06, -6.67572e-06, 0.115325, -0.00531331, -0.0305865, 0.992843, 1, 1, 1 )
tracks/16/type = "transform"
tracks/16/path = NodePath("Character/Skeleton:mixamorig_Spine2")
tracks/16/interp = 1
tracks/16/loop_wrap = true
tracks/16/imported = false
tracks/16/enabled = true
tracks/16/keys = PoolRealArray( 0, 1, 5.01052e-07, 0, 1.89245e-06, 0.0778327, 0.044499, 0.013827, 0.995877, 1, 1, 1, 0.0666667, 1, 5.01052e-07, 0, 1.89245e-06, 0.0706856, 0.0650377, 0.00706994, 0.995351, 1, 1, 1, 0.133333, 1, 5.01052e-07, 0, 1.89245e-06, 0.0509735, 0.0942733, -0.00976779, 0.994193, 1, 1, 1, 0.2, 1, 5.01052e-07, 0, 1.89245e-06, 0.0422026, 0.104412, -0.0169033, 0.993495, 1, 1, 1, 0.266667, 1, 5.01052e-07, 0, 1.89245e-06, 0.0580235, 0.0878484, -0.0173121, 0.994292, 1, 1, 1, 0.333333, 1, 5.01052e-07, 0, 1.89245e-06, 0.0780633, 0.0522138, -0.0206653, 0.995366, 1, 1, 1, 0.4, 1, 5.01052e-07, 0, 1.89245e-06, 0.0864056, -0.00825251, -0.00430246, 0.996217, 1, 1, 1, 0.466667, 1, 5.01052e-07, 0, 1.89245e-06, 0.0681871, -0.0461353, 0.0234419, 0.99633, 1, 1, 1, 0.533333, 1, 5.01052e-07, 0, 1.89245e-06, 0.0683569, -0.0614217, 0.0312187, 0.995279, 1, 1, 1, 0.6, 1, 5.01052e-07, 0, 1.89245e-06, 0.0742474, -0.0476686, 0.0309311, 0.99562, 1, 1, 1, 0.666667, 1, 5.01052e-07, 0, 1.89245e-06, 0.08247, -0.012974, 0.0306371, 0.996038, 1, 1, 1, 0.733333, 1, 5.01052e-07, 0, 1.89245e-06, 0.0778327, 0.044499, 0.013827, 0.995877, 1, 1, 1 )
tracks/17/type = "transform"
tracks/17/path = NodePath("Character/Skeleton:mixamorig_Spine1")
tracks/17/interp = 1
tracks/17/loop_wrap = true
tracks/17/imported = false
tracks/17/enabled = true
tracks/17/keys = PoolRealArray( 0, 1, -3.85568e-07, 7.62939e-06, 3.72529e-07, 0.077772, 0.0445582, 0.0142001, 0.995874, 1, 1, 1, 0.0666667, 1, -3.85568e-07, 7.62939e-06, 3.72529e-07, 0.0706169, 0.0650938, 0.00744224, 0.99535, 1, 1, 1, 0.133333, 1, -3.85568e-07, 7.62939e-06, 3.72529e-07, 0.0508933, 0.0943212, -0.00939665, 0.994196, 1, 1, 1, 0.2, 1, -3.85568e-07, 7.62939e-06, 3.72529e-07, 0.0421184, 0.104456, -0.0165326, 0.9935, 1, 1, 1, 0.266667, 1, -3.85568e-07, 7.62939e-06, 3.72529e-07, 0.0579455, 0.0878987, -0.0169409, 0.994298, 1, 1, 1, 0.333333, 1, -3.85568e-07, 7.62939e-06, 3.72529e-07, 0.0779986, 0.0522715, -0.0202926, 0.995375, 1, 1, 1, 0.4, 1, -3.85568e-07, 7.62939e-06, 3.72529e-07, 0.0863642, -0.00819085, -0.00392704, 0.996222, 1, 1, 1, 0.466667, 1, -3.85568e-07, 7.62939e-06, 3.72529e-07, 0.0681611, -0.0460793, 0.0238196, 0.996325, 1, 1, 1, 0.533333, 1, -3.85568e-07, 7.62939e-06, 3.72529e-07, 0.0683369, -0.0613653, 0.0315967, 0.995272, 1, 1, 1, 0.6, 1, -3.85568e-07, 7.62939e-06, 3.72529e-07, 0.0742222, -0.04761, 0.0313083, 0.995612, 1, 1, 1, 0.666667, 1, -3.85568e-07, 7.62939e-06, 3.72529e-07, 0.0824316, -0.0129123, 0.0310128, 0.99603, 1, 1, 1, 0.733333, 1, -3.85568e-07, 7.62939e-06, 3.72529e-07, 0.077772, 0.0445582, 0.0142001, 0.995874, 1, 1, 1 )
tracks/18/type = "transform"
tracks/18/path = NodePath("Character/Skeleton:mixamorig_Spine")
tracks/18/interp = 1
tracks/18/loop_wrap = true
tracks/18/imported = false
tracks/18/enabled = true
tracks/18/keys = PoolRealArray( 0, 1, -1.83005e-07, 7.62939e-06, 1.04308e-07, 0.0346351, 0.0126307, 0.0134229, 0.99923, 1, 1, 1, 0.0666667, 1, -1.83005e-07, 7.62939e-06, 1.04308e-07, 0.0312921, 0.0215307, 0.00214509, 0.999276, 1, 1, 1, 0.133333, 1, -1.83005e-07, 7.62939e-06, 1.04308e-07, 0.0224892, 0.0387903, -0.025459, 0.99867, 1, 1, 1, 0.2, 1, -1.83005e-07, 7.62939e-06, 1.04308e-07, 0.0178726, 0.0455373, -0.0216251, 0.998569, 1, 1, 1, 0.266667, 1, -1.83005e-07, 7.62939e-06, 1.04308e-07, 0.0257455, 0.0380464, -0.0234666, 0.998669, 1, 1, 1, 0.333333, 1, -1.83005e-07, 7.62939e-06, 1.04308e-07, 0.0357692, 0.0168306, -0.0338352, 0.998645, 1, 1, 1, 0.4, 1, -1.83005e-07, 7.62939e-06, 1.04308e-07, 0.0391735, -0.0154659, -0.0122524, 0.999038, 1, 1, 1, 0.466667, 1, -1.83005e-07, 7.62939e-06, 1.04308e-07, 0.0299446, -0.0321868, 0.0151484, 0.998918, 1, 1, 1, 0.533333, 1, -1.83005e-07, 7.62939e-06, 1.04308e-07, 0.030021, -0.037781, 0.0189306, 0.998656, 1, 1, 1, 0.6, 1, -1.83005e-07, 7.62939e-06, 1.04308e-07, 0.0329431, -0.0325799, 0.0199041, 0.998728, 1, 1, 1, 0.666667, 1, -1.83005e-07, 7.62939e-06, 1.04308e-07, 0.0370136, -0.0149324, 0.0238437, 0.998919, 1, 1, 1, 0.733333, 1, -1.83005e-07, 7.62939e-06, 1.04308e-07, 0.0346351, 0.0126307, 0.0134229, 0.99923, 1, 1, 1 )
tracks/19/type = "transform"
tracks/19/path = NodePath("Character/Skeleton:mixamorig_LeftToeBase")
tracks/19/interp = 1
tracks/19/loop_wrap = true
tracks/19/imported = false
tracks/19/enabled = true
tracks/19/keys = PoolRealArray( 0, 1, 9.53674e-07, 0, 0, 0.263142, -0.0877576, 0.000428477, 0.960757, 1, 1, 1, 0.0666667, 1, 9.53674e-07, 0, 0, 0.0703597, 0.0315691, 0.0169315, 0.996878, 1, 1, 1, 0.133333, 1, 9.53674e-07, 0, 0, 0.0308429, -0.00835727, -0.0349653, 0.998878, 1, 1, 1, 0.2, 1, 9.53674e-07, 0, 0, 0.0266653, -0.0306371, -0.0387127, 0.998425, 1, 1, 1, 0.266667, 1, 9.53674e-07, 0, 0, 0.0287406, -0.0149806, -0.0356203, 0.99884, 1, 1, 1, 0.333333, 1, 9.53674e-07, 0, 0, 0.0387524, -0.00322973, -0.0375758, 0.998537, 1, 1, 1, 0.4, 1, 9.53674e-07, 0, 0, 0.0431336, 0.00394092, -0.0350712, 0.998446, 1, 1, 1, 0.466667, 1, 9.53674e-07, 0, 0, 0.407284, 0.0234333, -0.036852, 0.912257, 1, 1, 1, 0.533333, 1, 9.53674e-07, 0, 0, -0.23397, -0.351604, -0.114542, 0.899174, 1, 1, 1, 0.6, 1, 9.53674e-07, 0, 0, 0.0256001, -0.0409681, -0.0420447, 0.997947, 1, 1, 1, 0.666667, 1, 9.53674e-07, 0, 0, 0.0201042, -0.0596273, -0.0437235, 0.99706, 1, 1, 1, 0.733333, 1, 9.53674e-07, 0, 0, 0.263142, -0.0877577, 0.000428538, 0.960757, 1, 1, 1 )
tracks/20/type = "transform"
tracks/20/path = NodePath("Character/Skeleton:mixamorig_LeftFoot")
tracks/20/interp = 1
tracks/20/loop_wrap = true
tracks/20/imported = false
tracks/20/enabled = true
tracks/20/keys = PoolRealArray( 0, 1, 9.53674e-07, -1.43051e-06, 9.53674e-07, -0.134703, 0.127237, 0.0393852, 0.981894, 1, 1, 1, 0.0666667, 1, 9.53674e-07, -1.43051e-06, 9.53674e-07, -0.0116929, -0.0340923, -0.0496984, 0.998114, 1, 1, 1, 0.133333, 1, 9.53674e-07, -1.43051e-06, 9.53674e-07, 0.0420692, 0.02482, -8.84739e-05, 0.998806, 1, 1, 1, 0.2, 1, 9.53674e-07, -1.43051e-06, 9.53674e-07, 0.161589, 0.0351935, 0.0184886, 0.986057, 1, 1, 1, 0.266667, 1, 9.53674e-07, -1.43051e-06, 9.53674e-07, 0.0551332, 0.090115, 0.0428106, 0.993482, 1, 1, 1, 0.333333, 1, 9.53674e-07, -1.43051e-06, 9.53674e-07, 0.141111, 0.108253, 0.0594419, 0.98226, 1, 1, 1, 0.4, 1, 9.53674e-07, -1.43051e-06, 9.53674e-07, 0.240154, 0.0939714, 0.060256, 0.964295, 1, 1, 1, 0.466667, 1, 9.53674e-07, -1.43051e-06, 9.53674e-07, -0.0231069, 0.0389516, 0.0137412, 0.998879, 1, 1, 1, 0.533333, 1, 9.53674e-07, -1.43051e-06, 9.53674e-07, -0.281712, 0.0034748, -0.0416927, 0.958586, 1, 1, 1, 0.6, 1, 9.53674e-07, -1.43051e-06, 9.53674e-07, -0.299485, 0.0106019, -0.0409058, 0.953165, 1, 1, 1, 0.666667, 1, 9.53674e-07, -1.43051e-06, 9.53674e-07, -0.246354, 0.078247, -0.000140121, 0.966016, 1, 1, 1, 0.733333, 1, 9.53674e-07, -1.43051e-06, 9.53674e-07, -0.134703, 0.127237, 0.0393852, 0.981894, 1, 1, 1 )
tracks/21/type = "transform"
tracks/21/path = NodePath("Character/Skeleton:mixamorig_LeftLeg")
tracks/21/interp = 1
tracks/21/loop_wrap = true
tracks/21/imported = false
tracks/21/enabled = true
tracks/21/keys = PoolRealArray( 0, 1, 1.62795e-06, -1.90735e-06, -9.53674e-07, -0.570062, -0.0604361, 0.152547, 0.80505, 1, 1, 1, 0.0666667, 1, 1.62795e-06, -1.90735e-06, -9.53674e-07, -0.533694, -0.00239431, 0.0895181, 0.840923, 1, 1, 1, 0.133333, 1, 1.62795e-06, -1.90735e-06, -9.53674e-07, -0.197211, -0.0116848, -0.00230848, 0.980289, 1, 1, 1, 0.2, 1, 1.62795e-06, -1.90735e-06, -9.53674e-07, -0.0887685, 0.0508908, -0.00288629, 0.994747, 1, 1, 1, 0.266667, 1, 1.62795e-06, -1.90735e-06, -9.53674e-07, -0.17679, 0.0248947, 0.0133751, 0.983843, 1, 1, 1, 0.333333, 1, 1.62795e-06, -1.90735e-06, -9.53674e-07, -0.348271, 0.0590363, 0.000904965, 0.935533, 1, 1, 1, 0.4, 1, 1.62795e-06, -1.90735e-06, -9.53674e-07, -0.105493, 0.121779, 0.00654039, 0.986914, 1, 1, 1, 0.466667, 1, 1.62795e-06, -1.90735e-06, -9.53674e-07, -0.187103, 0.103103, 0.0404085, 0.976079, 1, 1, 1, 0.533333, 1, 1.62795e-06, -1.90735e-06, -9.53674e-07, -0.0973818, 0.122979, 0.0646273, 0.985503, 1, 1, 1, 0.6, 1, 1.62795e-06, -1.90735e-06, -9.53674e-07, -0.350415, 0.0247595, 0.0971615, 0.931212, 1, 1, 1, 0.666667, 1, 1.62795e-06, -1.90735e-06, -9.53674e-07, -0.580526, -0.0366553, 0.15337, 0.798826, 1, 1, 1, 0.733333, 1, 1.62795e-06, -1.90735e-06, -9.53674e-07, -0.570062, -0.0604361, 0.152547, 0.80505, 1, 1, 1 )
tracks/22/type = "transform"
tracks/22/path = NodePath("Character/Skeleton:mixamorig_LeftUpLeg")
tracks/22/interp = 1
tracks/22/loop_wrap = true
tracks/22/imported = false
tracks/22/enabled = true
tracks/22/keys = PoolRealArray( 0, 1, 9.53674e-07, 3.8147e-06, -2.38419e-07, 0.371187, -0.0515956, -0.0929503, 0.922453, 1, 1, 1, 0.0666667, 1, 9.53674e-07, 3.8147e-06, -2.38419e-07, 0.386942, -0.00827082, -0.0353131, 0.92139, 1, 1, 1, 0.133333, 1, 9.53674e-07, 3.8147e-06, -2.38419e-07, 0.329969, 0.0356578, -0.0892285, 0.939089, 1, 1, 1, 0.2, 1, 9.53674e-07, 3.8147e-06, -2.38419e-07, 0.288572, 0.0635114, -0.0830512, 0.951733, 1, 1, 1, 0.266667, 1, 9.53674e-07, 3.8147e-06, -2.38419e-07, 0.303434, 0.0651963, -0.132054, 0.941403, 1, 1, 1, 0.333333, 1, 9.53674e-07, 3.8147e-06, -2.38419e-07, 0.244584, 0.0268568, -0.117123, 0.962154, 1, 1, 1, 0.4, 1, 9.53674e-07, 3.8147e-06, -2.38419e-07, -0.103764, 0.0246963, -0.0451024, 0.993272, 1, 1, 1, 0.466667, 1, 9.53674e-07, 3.8147e-06, -2.38419e-07, -0.076843, -0.0447887, 0.00946975, 0.995992, 1, 1, 1, 0.533333, 1, 9.53674e-07, 3.8147e-06, -2.38419e-07, -0.137868, -0.0167536, -0.0220159, 0.990064, 1, 1, 1, 0.6, 1, 9.53674e-07, 3.8147e-06, -2.38419e-07, -0.0314707, -0.0259722, -0.0128366, 0.999085, 1, 1, 1, 0.666667, 1, 9.53674e-07, 3.8147e-06, -2.38419e-07, 0.23472, -0.0377227, -0.0318157, 0.97081, 1, 1, 1, 0.733333, 1, 9.53674e-07, 3.8147e-06, -2.38419e-07, 0.371187, -0.0515956, -0.0929503, 0.922453, 1, 1, 1 )
tracks/23/type = "transform"
tracks/23/path = NodePath("Character/Skeleton:mixamorig_RightToeBase")
tracks/23/interp = 1
tracks/23/loop_wrap = true
tracks/23/imported = false
tracks/23/enabled = true
tracks/23/keys = PoolRealArray( 0, 1, 0, -9.53674e-07, -9.53674e-07, 0.092155, -0.0301146, 0.108362, 0.989373, 1, 1, 1, 0.0666667, 1, 0, -9.53674e-07, -9.53674e-07, 0.151694, -0.0436672, 0.114252, 0.980831, 1, 1, 1, 0.133333, 1, 0, -9.53674e-07, -9.53674e-07, 0.492321, -0.129246, 0.0670427, 0.858149, 1, 1, 1, 0.2, 1, 0, -9.53674e-07, -9.53674e-07, 0.00217712, -0.0798155, 0.0291978, 0.99638, 1, 1, 1, 0.266667, 1, 0, -9.53674e-07, -9.53674e-07, 0.173536, -0.0788594, 0.0935663, 0.977196, 1, 1, 1, 0.333333, 1, 0, -9.53674e-07, -9.53674e-07, 0.136292, -0.0578982, 0.0696854, 0.986517, 1, 1, 1, 0.4, 1, 0, -9.53674e-07, -9.53674e-07, 0.496629, -0.0347856, 0.078115, 0.863741, 1, 1, 1, 0.466667, 1, 0, -9.53674e-07, -9.53674e-07, 0.0866846, -0.0519544, 0.0820468, 0.991491, 1, 1, 1, 0.533333, 1, 0, -9.53674e-07, -9.53674e-07, 0.0681281, -0.0612833, 0.105561, 0.990182, 1, 1, 1, 0.6, 1, 0, -9.53674e-07, -9.53674e-07, 0.080179, -0.0770291, 0.110222, 0.987668, 1, 1, 1, 0.666667, 1, 0, -9.53674e-07, -9.53674e-07, 0.0371397, -0.0346071, 0.101461, 0.993544, 1, 1, 1, 0.733333, 1, 0, -9.53674e-07, -9.53674e-07, 0.092155, -0.0301146, 0.108362, 0.989373, 1, 1, 1 )
tracks/24/type = "transform"
tracks/24/path = NodePath("Character/Skeleton:mixamorig_RightFoot")
tracks/24/interp = 1
tracks/24/loop_wrap = true
tracks/24/imported = false
tracks/24/enabled = true
tracks/24/keys = PoolRealArray( 0, 1, -2.86102e-06, -2.38419e-06, 0, 0.228191, -0.0937646, -0.0384216, 0.968329, 1, 1, 1, 0.0666667, 1, -2.86102e-06, -2.38419e-06, 0, 0.184933, -0.0958564, -0.0378813, 0.977331, 1, 1, 1, 0.133333, 1, -2.86102e-06, -2.38419e-06, 0, -0.0838578, -0.049639, -0.0176771, 0.995084, 1, 1, 1, 0.2, 1, -2.86102e-06, -2.38419e-06, 0, -0.505562, 0.0442875, 0.0916738, 0.856762, 1, 1, 1, 0.266667, 1, -2.86102e-06, -2.38419e-06, 0, -0.421954, 0.00364253, 0.0666375, 0.904158, 1, 1, 1, 0.333333, 1, -2.86102e-06, -2.38419e-06, 0, -0.358597, -0.040795, 0.036645, 0.931881, 1, 1, 1, 0.4, 1, -2.86102e-06, -2.38419e-06, 0, -0.277169, -0.0839665, -0.00434864, 0.957135, 1, 1, 1, 0.466667, 1, -2.86102e-06, -2.38419e-06, 0, -0.141716, -0.0815876, -0.00979826, 0.986491, 1, 1, 1, 0.533333, 1, -2.86102e-06, -2.38419e-06, 0, 0.00577253, -0.0393359, 0.0110328, 0.999149, 1, 1, 1, 0.6, 1, -2.86102e-06, -2.38419e-06, 0, 0.0891304, -0.0650581, -0.0169669, 0.993748, 1, 1, 1, 0.666667, 1, -2.86102e-06, -2.38419e-06, 0, 0.0367954, -0.110472, -0.0393994, 0.992416, 1, 1, 1, 0.733333, 1, -2.86102e-06, -2.38419e-06, 0, 0.228191, -0.0937646, -0.0384216, 0.968329, 1, 1, 1 )
tracks/25/type = "transform"
tracks/25/path = NodePath("Character/Skeleton:mixamorig_RightLeg")
tracks/25/interp = 1
tracks/25/loop_wrap = true
tracks/25/imported = false
tracks/25/enabled = true
tracks/25/keys = PoolRealArray( 0, 1, 2.80142e-06, 0, 4.76837e-07, -0.287277, -0.0271185, -0.00735261, 0.957435, 1, 1, 1, 0.0666667, 1, 2.80142e-06, 0, 4.76837e-07, -0.113544, -0.0652942, -0.00135665, 0.991384, 1, 1, 1, 0.133333, 1, 2.80142e-06, 0, 4.76837e-07, -0.258182, -0.180964, 0.0146096, 0.948884, 1, 1, 1, 0.2, 1, 2.80142e-06, 0, 4.76837e-07, 0.0190794, 0.00442854, -0.0115433, 0.999742, 1, 1, 1, 0.266667, 1, 2.80142e-06, 0, 4.76837e-07, -0.383264, 0.0288532, -0.00777407, 0.923156, 1, 1, 1, 0.333333, 1, 2.80142e-06, 0, 4.76837e-07, -0.633051, 0.0124696, 0.0214415, 0.773713, 1, 1, 1, 0.4, 1, 2.80142e-06, 0, 4.76837e-07, -0.597146, 0.0207683, 0.0122991, 0.801769, 1, 1, 1, 0.466667, 1, 2.80142e-06, 0, 4.76837e-07, -0.313543, 0.0242345, 0.0122497, 0.949186, 1, 1, 1, 0.533333, 1, 2.80142e-06, 0, 4.76837e-07, -0.027521, -0.0175169, 0.0106638, 0.999411, 1, 1, 1, 0.6, 1, 2.80142e-06, 0, 4.76837e-07, -0.11367, -0.0681616, 0.00928989, 0.991134, 1, 1, 1, 0.666667, 1, 2.80142e-06, 0, 4.76837e-07, -0.27584, -0.018818, 0.0241496, 0.960716, 1, 1, 1, 0.733333, 1, 2.80142e-06, 0, 4.76837e-07, -0.287277, -0.0271185, -0.00735261, 0.957435, 1, 1, 1 )
tracks/26/type = "transform"
tracks/26/path = NodePath("Character/Skeleton:mixamorig_RightUpLeg")
tracks/26/interp = 1
tracks/26/loop_wrap = true
tracks/26/imported = false
tracks/26/enabled = true
tracks/26/keys = PoolRealArray( 0, 1, 2.38419e-06, -3.8147e-06, 0, 0.0754839, -0.0681995, 0.113451, 0.988322, 1, 0.999999, 0.999999, 0.0666667, 1, 2.38419e-06, -3.8147e-06, 0, -0.0999472, -0.0663468, 0.0652301, 0.990633, 1, 1, 0.999999, 0.133333, 1, 2.38419e-06, -3.8147e-06, 0, -0.0739733, -0.0181469, -0.00971005, 0.997048, 1, 0.999999, 0.999999, 0.2, 1, 2.38419e-06, -3.8147e-06, 0, -0.225657, -0.0799477, -0.0526011, 0.969495, 1, 0.999999, 0.999999, 0.266667, 1, 2.38419e-06, -3.8147e-06, 0, -0.0484252, -0.0998171, -0.0323747, 0.993299, 1, 1, 0.999999, 0.333333, 1, 2.38419e-06, -3.8147e-06, 0, 0.258321, -0.100602, -0.0109063, 0.960745, 1, 0.999999, 0.999999, 0.4, 1, 2.38419e-06, -3.8147e-06, 0, 0.43931, -0.0346454, 0.0407438, 0.896742, 1, 0.999999, 0.999999, 0.466667, 1, 2.38419e-06, -3.8147e-06, 0, 0.432552, -0.045932, 0.116267, 0.892901, 1, 0.999999, 0.999999, 0.533333, 1, 2.38419e-06, -3.8147e-06, 0, 0.334662, -0.0574725, 0.107965, 0.934367, 1, 0.999999, 0.999999, 0.6, 1, 2.38419e-06, -3.8147e-06, 0, 0.325479, -0.0513957, 0.11738, 0.936827, 1, 0.999999, 0.999999, 0.666667, 1, 2.38419e-06, -3.8147e-06, 0, 0.303609, -0.0408535, 0.128679, 0.943183, 1, 0.999999, 0.999999, 0.733333, 1, 2.38419e-06, -3.8147e-06, 0, 0.0754839, -0.0681995, 0.113451, 0.988322, 1, 0.999999, 0.999999 )
tracks/27/type = "transform"
tracks/27/path = NodePath("Character/Skeleton:mixamorig_Hips")
tracks/27/interp = 1
tracks/27/loop_wrap = true
tracks/27/imported = false
tracks/27/enabled = true
tracks/27/keys = PoolRealArray( 0, 1, 0.202729, -2.90726, 1.27773, 0.0598122, 0.0282007, -0.0165369, 0.997674, 1, 1, 1, 0.0666667, 1, 0.233261, -1.68813, 1.85986, 0.0600604, 0.0235319, 0.000502887, 0.997917, 1, 1, 1, 0.133333, 1, 0.0496958, -1.31614, 2.00106, 0.0585984, 0.0455569, 0.0363624, 0.996578, 1, 1, 1, 0.2, 1, 0.252531, -1.53194, 2.96531, 0.0486694, 0.0314855, 0.023725, 0.998037, 1, 1, 1, 0.266667, 1, 0.370913, -2.81811, 2.79717, 0.0341338, 0.0524395, 0.0268635, 0.997679, 1, 1, 1, 0.333333, 1, 0.0384077, -5.89104, 1.80698, 0.0417863, 0.0496303, 0.0376929, 0.997181, 1, 1, 1, 0.4, 1, 0.103943, -4.72641, 2.01526, 0.0484232, 0.0506133, 0.00581147, 0.997527, 1, 1, 1, 0.466667, 1, 0.353002, -0.846886, 1.87524, 0.0753231, 0.0046294, -0.0333147, 0.996592, 1, 1, 1, 0.533333, 1, 0.386604, -0.25824, 2.21038, 0.0797562, -0.00107629, -0.023039, 0.996548, 1, 1, 1, 0.6, 1, 0.329798, -1.90773, 2.16628, 0.0684665, 0.00474685, -0.0178593, 0.997482, 1, 1, 1, 0.666667, 1, 0.0724225, -3.89686, 1.19327, 0.0678275, 0.0272055, -0.0261055, 0.996984, 1, 1, 1, 0.733333, 1, 0.202729, -2.90726, 1.27773, 0.0598122, 0.0282007, -0.0165369, 0.997674, 1, 1, 1 )
