[gd_resource type="Animation" format=2]

[resource]
resource_name = "Walk"
length = 1.06667
loop = true
tracks/0/type = "transform"
tracks/0/path = NodePath("Character/Skeleton:mixamorig_Head")
tracks/0/interp = 1
tracks/0/loop_wrap = true
tracks/0/imported = false
tracks/0/enabled = true
tracks/0/keys = PoolRealArray( 0, 1, -2.38419e-07, -7.62939e-06, 7.45058e-07, -0.0755932, 0.0538686, -0.050392, 0.994407, 1, 1, 1, 0.0666667, 1, -2.23517e-07, -7.62939e-06, 7.45058e-07, -0.0726598, 0.0432797, -0.04956, 0.995184, 1, 1, 1, 0.133333, 1, -2.08616e-07, -7.62939e-06, 7.45058e-07, -0.0762257, 0.0273708, -0.0511922, 0.995399, 1, 1, 1, 0.2, 1, -1.93715e-07, -7.62939e-06, 7.45058e-07, -0.0888081, 0.0239979, -0.0527675, 0.994361, 1, 1, 1, 0.266667, 1, -1.78814e-07, -7.62939e-06, 7.45058e-07, -0.100216, 0.0126334, -0.0476279, 0.993745, 1, 1, 1, 0.333333, 1, -1.63913e-07, -7.62939e-06, 7.45058e-07, -0.0829059, -7.11508e-05, -0.0245566, 0.996255, 1, 1, 1, 0.4, 1, -1.49012e-07, -7.62939e-06, 7.45058e-07, -0.0766072, 0.003351, -0.00916145, 0.997014, 1, 1, 1, 0.466667, 1, -1.3411e-07, -7.62939e-06, 7.45058e-07, -0.0851355, 0.0342922, -0.0310513, 0.995295, 1, 1, 1, 0.533333, 1, -1.19209e-07, -7.62939e-06, 7.45058e-07, -0.0701253, 0.0623476, -0.0468057, 0.994487, 1, 1, 1, 0.6, 1, -1.04308e-07, -7.62939e-06, 7.45058e-07, -0.0582104, 0.0857816, -0.053803, 0.993156, 1, 1, 1, 0.666667, 1, -8.9407e-08, -7.62939e-06, 7.45058e-07, -0.0682916, 0.101475, -0.0550123, 0.990966, 1, 1, 1, 0.733333, 1, -7.45058e-08, -7.62939e-06, 7.45058e-07, -0.0806149, 0.107861, -0.0549969, 0.989365, 1, 1, 1, 0.8, 1, -5.96046e-08, -7.62939e-06, 7.45058e-07, -0.0910288, 0.110007, -0.0605735, 0.987898, 1, 1, 1, 0.866667, 1, -4.47035e-08, -7.62939e-06, 7.45058e-07, -0.0874111, 0.126008, -0.0827793, 0.984697, 1, 1, 1, 0.933333, 1, -2.98023e-08, -7.62939e-06, 7.45058e-07, -0.0821971, 0.113441, -0.0728931, 0.987452, 1, 1, 1, 1, 1, -1.49012e-08, -7.62939e-06, 7.45058e-07, -0.0851097, 0.0763114, -0.0559932, 0.991866, 1, 1, 1, 1.06667, 1, 0, -7.62939e-06, 7.45058e-07, -0.0755932, 0.0538686, -0.0503921, 0.994407, 1, 1, 1 )
tracks/1/type = "transform"
tracks/1/path = NodePath("Character/Skeleton:mixamorig_Neck")
tracks/1/interp = 1
tracks/1/loop_wrap = true
tracks/1/imported = false
tracks/1/enabled = true
tracks/1/keys = PoolRealArray( 0, 1, -2.68221e-07, 1.52588e-05, 1.72853e-06, 0.0196702, 0.0111827, 0.0109029, 0.999685, 1, 1, 1, 0.0666667, 1, -2.38419e-07, 1.52588e-05, 1.66893e-06, 0.0200747, 0.00909013, 0.00975894, 0.99971, 1, 1, 1, 0.133333, 1, -2.38419e-07, 1.52588e-05, 1.54972e-06, 0.0184902, 0.00217072, 0.0157284, 0.999703, 1, 1, 1, 0.2, 1, -2.38419e-07, 1.52588e-05, 1.37091e-06, 0.018944, -0.00556765, 0.0227896, 0.999545, 1, 1, 1, 0.266667, 1, -2.38419e-07, 1.52588e-05, 1.2517e-06, 0.0169324, -0.011061, 0.0192197, 0.999611, 1, 1, 1, 0.333333, 1, -2.38419e-07, 1.52588e-05, 1.13249e-06, 0.0226565, -0.0095473, -0.00115779, 0.999697, 1, 1, 1, 0.4, 1, -2.38419e-07, 1.52588e-05, 1.01328e-06, 0.0236164, -0.00451873, -0.0116773, 0.999643, 1, 1, 1, 0.466667, 1, -2.38419e-07, 1.52588e-05, 8.9407e-07, 0.0231293, 0.0037554, -0.0117709, 0.999656, 1, 1, 1, 0.533333, 1, -2.38419e-07, 1.52588e-05, 7.7486e-07, 0.0266946, 0.0121605, -0.00190259, 0.999568, 1, 1, 1, 0.6, 1, -2.38419e-07, 1.52588e-05, 6.55651e-07, 0.0296169, 0.0209774, 0.00441566, 0.999332, 1, 1, 1, 0.666667, 1, -2.38419e-07, 1.52588e-05, 5.36442e-07, 0.0265747, 0.0303915, -0.00127255, 0.999184, 1, 1, 1, 0.733333, 1, -2.38419e-07, 1.52588e-05, 4.17233e-07, 0.0233469, 0.0378985, -0.00749586, 0.998981, 1, 1, 1, 0.8, 1, -2.38419e-07, 1.52588e-05, 2.98023e-07, 0.0188355, 0.0397561, -0.00262916, 0.999029, 1, 1, 1, 0.866667, 1, -2.38419e-07, 1.52588e-05, 1.78814e-07, 0.023332, 0.0364816, 0.0150574, 0.998948, 1, 1, 1, 0.933333, 1, -2.38419e-07, 1.52588e-05, 5.96046e-08, 0.0227734, 0.0277008, 0.0251397, 0.999041, 1, 1, 1, 1, 1, -2.38419e-07, 1.52588e-05, -5.96046e-08, 0.0214995, 0.0166188, 0.020598, 0.999418, 1, 1, 1, 1.06667, 1, -2.38419e-07, 1.52588e-05, -1.78814e-07, 0.0196702, 0.0111827, 0.0109029, 0.999685, 1, 1, 1 )
tracks/2/type = "transform"
tracks/2/path = NodePath("Character/Skeleton:mixamorig_LeftHandIndex3")
tracks/2/interp = 1
tracks/2/loop_wrap = true
tracks/2/imported = false
tracks/2/enabled = true
tracks/2/keys = PoolRealArray( 0, 1, 5.36442e-07, -3.09944e-06, 2.5034e-06, -0.0193033, -0.0024365, 0.00473553, 0.9998, 1, 1, 1, 0.133333, 1, 3.42727e-07, -3.09944e-06, 2.68221e-06, -0.0190817, -0.00240446, 0.00471224, 0.999804, 1, 1, 1, 0.2, 1, 2.08616e-07, -3.09944e-06, 2.80142e-06, -0.0183772, -0.00230238, 0.00463843, 0.999818, 1, 1, 1, 0.266667, 1, 7.45058e-08, -3.09944e-06, 2.92063e-06, -0.0185229, -0.00232339, 0.00465362, 0.999815, 1, 1, 1, 0.333333, 1, -4.47035e-08, -3.09944e-06, 3.03984e-06, -0.0192328, -0.00242636, 0.00472796, 0.999801, 1, 1, 1, 0.4, 1, -1.78814e-07, -2.86102e-06, 3.15905e-06, -0.0205018, -0.00261032, 0.0048611, 0.999775, 1, 1, 1, 0.466667, 1, -3.12924e-07, -2.86102e-06, 3.27826e-06, -0.0204784, -0.00260687, 0.00485846, 0.999775, 1, 1, 1, 0.533333, 1, -4.32134e-07, -2.86102e-06, 3.39746e-06, -0.0199257, -0.00252675, 0.00480058, 0.999787, 1, 1, 1, 0.666667, 1, -6.85453e-07, -2.86102e-06, 3.57628e-06, -0.0199687, -0.00253305, 0.00480518, 0.999786, 1, 1, 1, 0.733333, 1, -8.04663e-07, -2.86102e-06, 3.69549e-06, -0.0204692, -0.00260557, 0.00485762, 0.999775, 1, 1, 1, 0.933333, 1, -1.19209e-06, -2.86102e-06, 4.05312e-06, -0.0208022, -0.00265382, 0.00489239, 0.999768, 1, 1, 1, 1.06667, 1, -1.46031e-06, -2.86102e-06, 4.29153e-06, -0.0193035, -0.00243656, 0.0047356, 0.999799, 1, 1, 1 )
tracks/3/type = "transform"
tracks/3/path = NodePath("Character/Skeleton:mixamorig_LeftHandIndex2")
tracks/3/interp = 1
tracks/3/loop_wrap = true
tracks/3/imported = false
tracks/3/enabled = true
tracks/3/keys = PoolRealArray( 0, 1, 3.41237e-06, -7.03335e-06, 2.86102e-06, -0.176378, -0.00194618, 0.023701, 0.984035, 1, 1, 1, 0.133333, 1, 3.59118e-06, -6.67572e-06, 2.6226e-06, -0.176158, -0.00194139, 0.0236781, 0.984075, 1, 1, 1, 0.2, 1, 3.69549e-06, -6.55651e-06, 2.5034e-06, -0.175457, -0.00192631, 0.023605, 0.984202, 1, 1, 1, 0.266667, 1, 3.7998e-06, -6.31809e-06, 2.38419e-06, -0.175602, -0.00192948, 0.0236203, 0.984176, 1, 1, 1, 0.333333, 1, 3.9041e-06, -6.07967e-06, 2.26498e-06, -0.176307, -0.00194451, 0.0236938, 0.984048, 1, 1, 1, 0.4, 1, 4.02331e-06, -5.96046e-06, 2.14577e-06, -0.177569, -0.00197144, 0.0238252, 0.983818, 1, 1, 1, 0.466667, 1, 4.11272e-06, -5.72205e-06, 2.02656e-06, -0.177546, -0.00197113, 0.023823, 0.983822, 1, 1, 1, 0.533333, 1, 4.21703e-06, -5.48363e-06, 1.78814e-06, -0.176997, -0.00195936, 0.0237656, 0.983923, 1, 1, 1, 0.666667, 1, 4.42564e-06, -4.88758e-06, 1.54972e-06, -0.177039, -0.0019601, 0.02377, 0.983915, 1, 1, 1, 0.733333, 1, 4.54485e-06, -4.76837e-06, 1.3113e-06, -0.177537, -0.00197078, 0.0238219, 0.983824, 1, 1, 1, 0.933333, 1, 4.84288e-06, -4.17233e-06, 9.53674e-07, -0.177868, -0.00197794, 0.0238564, 0.983763, 1, 1, 1, 1, 1, 4.96209e-06, -3.93391e-06, 8.34465e-07, -0.177021, -0.00195977, 0.0237681, 0.983918, 1, 1, 1, 1.06667, 1, 5.06639e-06, -3.8147e-06, 7.15256e-07, -0.176378, -0.00194615, 0.0237011, 0.984035, 1, 1, 1 )
tracks/4/type = "transform"
tracks/4/path = NodePath("Character/Skeleton:mixamorig_LeftHandIndex1")
tracks/4/interp = 1
tracks/4/loop_wrap = true
tracks/4/imported = false
tracks/4/enabled = true
tracks/4/keys = PoolRealArray( 0, 1, 0, 6.67572e-06, -4.52995e-06, -0.0302399, -0.00257276, 0.049838, 0.998296, 1, 1, 1, 0.0666667, 1, 0, 6.67572e-06, -4.52995e-06, -0.0389045, -0.00137299, 0.0559058, 0.997677, 1, 1, 1, 0.133333, 1, -1.19209e-07, 5.72205e-06, -4.52995e-06, -0.0417263, -0.0011634, 0.0544107, 0.997646, 1, 1, 1, 0.2, 1, -2.38419e-07, 5.72205e-06, -4.76837e-06, 0.00103149, -0.00412653, 0.0338536, 0.999418, 1, 1, 1, 0.266667, 1, -3.57628e-07, 5.72205e-06, -4.76837e-06, 0.0161669, -0.00392294, 0.0218634, 0.999623, 1, 1, 1, 0.333333, 1, -4.76837e-07, 5.72205e-06, -5.00679e-06, 0.0208235, -0.00362008, 0.0170924, 0.999631, 1, 1, 1, 0.4, 1, -5.96046e-07, 5.72205e-06, -5.00679e-06, 0.0118748, -0.00175449, 0.0100088, 0.999878, 1, 1, 1, 0.466667, 1, -7.15256e-07, 5.72205e-06, -5.24521e-06, -0.000762009, -0.00147724, 0.0155209, 0.999878, 1, 1, 1, 0.533333, 1, -8.34465e-07, 5.72205e-06, -5.24521e-06, 0.00523336, -0.00329654, 0.0247453, 0.999675, 1, 1, 1, 0.6, 1, -9.53674e-07, 5.72205e-06, -5.48363e-06, -0.00340073, -0.00369531, 0.0341182, 0.999405, 1, 1, 1, 0.666667, 1, -1.07288e-06, 5.72205e-06, -5.48363e-06, -0.00539353, -0.00344568, 0.033923, 0.999404, 1, 1, 1, 0.733333, 1, -1.19209e-06, 5.72205e-06, -5.72205e-06, -0.027102, -0.00188717, 0.0400828, 0.998827, 1, 1, 1, 0.8, 1, -1.3113e-06, 5.72205e-06, -5.72205e-06, 0.00281541, -0.00340239, 0.0282224, 0.999592, 1, 1, 1, 0.866667, 1, -1.54972e-06, 5.72205e-06, -5.96046e-06, 0.00300219, -0.00258777, 0.0231553, 0.999724, 1, 1, 1, 0.933333, 1, -1.66893e-06, 5.72205e-06, -5.96046e-06, 0.00445931, -0.00218894, 0.0202458, 0.999783, 1, 1, 1, 1, 1, -1.78814e-06, 5.72205e-06, -6.19888e-06, 0.0157467, -0.00365271, 0.0230179, 0.999604, 1, 1, 1, 1.06667, 1, -1.90735e-06, 5.72205e-06, -6.19888e-06, -0.0302399, -0.00257279, 0.049838, 0.998296, 1, 1, 1 )
tracks/5/type = "transform"
tracks/5/path = NodePath("Character/Skeleton:mixamorig_LeftHand")
tracks/5/interp = 1
tracks/5/loop_wrap = true
tracks/5/imported = false
tracks/5/enabled = true
tracks/5/keys = PoolRealArray( 0, 1, -2.86102e-06, 7.62939e-06, 1.90735e-06, -0.0173184, -0.0248869, 0.0959893, 0.99492, 1, 1, 1, 0.0666667, 1, -2.86102e-06, 7.62939e-06, 1.90735e-06, 0.00966483, -0.022623, 0.107562, 0.993894, 1, 1, 1, 0.133333, 1, -2.86102e-06, 7.62939e-06, 1.90735e-06, 0.0254268, -0.0233271, 0.13741, 0.989913, 1, 1, 1, 0.2, 1, -2.38419e-06, 7.62939e-06, 1.43051e-06, 0.0386224, -0.0219338, 0.148732, 0.98788, 1, 1, 1, 0.266667, 1, -2.38419e-06, 7.62939e-06, 1.43051e-06, 0.0291936, 0.0166407, 0.116408, 0.992633, 1, 1, 1, 0.333333, 1, -1.90735e-06, 5.72205e-06, 1.90735e-06, 0.0200671, 0.0403772, 0.0731894, 0.996298, 1, 1, 1, 0.4, 1, -1.90735e-06, 5.72205e-06, 1.90735e-06, 0.0146254, 0.00168853, 0.0969298, 0.995182, 1, 1, 1, 0.466667, 1, -9.53674e-07, 5.72205e-06, 1.43051e-06, 0.00503769, -0.0172852, 0.0848453, 0.996232, 1, 1, 1, 0.533333, 1, -9.53674e-07, 5.72205e-06, 1.43051e-06, -0.0176912, -0.00737668, 0.0809536, 0.996534, 1, 1, 1, 0.6, 1, -9.53674e-07, 5.72205e-06, 1.43051e-06, -0.0181682, -0.0148615, 0.0886113, 0.99579, 1, 1, 1, 0.666667, 1, -9.53674e-07, 5.72205e-06, 1.43051e-06, -0.0847843, -0.0238233, 0.0928903, 0.991774, 1, 1, 1, 0.733333, 1, -4.76837e-07, 5.72205e-06, 9.53674e-07, -0.19895, -0.0586397, 0.0925924, 0.973862, 1, 1, 1, 0.8, 1, -4.76837e-07, 5.72205e-06, 9.53674e-07, -0.245305, -0.066909, 0.123216, 0.959253, 1, 1, 1, 0.866667, 1, 0, 3.8147e-06, 1.43051e-06, -0.268443, -0.0720751, 0.128332, 0.951985, 1, 1, 1, 0.933333, 1, 0, 3.8147e-06, 1.43051e-06, -0.247734, -0.106514, 0.135013, 0.953443, 1, 1, 1, 1, 1, 4.76837e-07, 3.8147e-06, 9.53674e-07, -0.109932, -0.0688477, 0.124954, 0.983647, 1, 1, 1, 1.06667, 1, 4.76837e-07, 3.8147e-06, 9.53674e-07, -0.0173183, -0.0248867, 0.0959892, 0.994921, 1, 1, 1 )
tracks/6/type = "transform"
tracks/6/path = NodePath("Character/Skeleton:mixamorig_LeftForeArm")
tracks/6/interp = 1
tracks/6/loop_wrap = true
tracks/6/imported = false
tracks/6/enabled = true
tracks/6/keys = PoolRealArray( 0, 1, -4.76837e-06, -7.62939e-06, -5.72205e-06, -0.000436966, 4.45606e-08, -0.158447, 0.987367, 1, 1, 1, 0.0666667, 1, -4.76837e-06, -7.62939e-06, -5.63264e-06, -0.000437535, -6.78339e-08, -0.158616, 0.98734, 1, 1, 1, 0.133333, 1, -4.76837e-06, -7.62939e-06, -5.51343e-06, -0.000451547, -1.06778e-07, -0.163708, 0.986509, 1, 1, 1, 0.2, 1, -3.8147e-06, -5.72205e-06, -5.42402e-06, -0.000509543, -1.28096e-07, -0.184703, 0.982794, 1, 1, 1, 0.266667, 1, -3.8147e-06, -5.72205e-06, -5.30481e-06, -0.00059995, -1.10458e-07, -0.217454, 0.97607, 1, 1, 1, 0.333333, 1, -3.8147e-06, -5.72205e-06, -5.1558e-06, -0.000573333, -5.38089e-08, -0.207801, 0.978171, 1, 1, 1, 0.4, 1, -3.8147e-06, -5.72205e-06, -5.03659e-06, -0.000482818, -5.86592e-08, -0.175106, 0.98455, 1, 1, 1, 0.466667, 1, -2.86102e-06, -3.8147e-06, -4.91738e-06, -0.000353006, -3.36337e-08, -0.128086, 0.991763, 1, 1, 1, 0.533333, 1, -2.86102e-06, -3.8147e-06, -4.79817e-06, -0.000166427, 7.00317e-08, -0.0604117, 0.998174, 1, 1, 1, 0.6, 1, -2.86102e-06, -3.8147e-06, -4.64916e-06, 0.00012243, 5.1825e-08, 0.044277, 0.999019, 1, 1, 1, 0.666667, 1, -2.86102e-06, -3.8147e-06, -4.52995e-06, 0.000443979, 9.0093e-08, 0.160876, 0.986975, 1, 1, 1, 0.733333, 1, -1.90735e-06, -1.90735e-06, -4.44055e-06, 0.000665511, -1.61618e-07, 0.241171, 0.970482, 1, 1, 1, 0.8, 1, -1.90735e-06, -1.90735e-06, -4.32134e-06, 0.000686493, -1.55352e-08, 0.248803, 0.968554, 1, 1, 1, 0.866667, 1, -1.90735e-06, -1.90735e-06, -4.20213e-06, 0.000538941, 5.76589e-08, 0.195284, 0.980747, 1, 1, 1, 0.933333, 1, -1.90735e-06, -1.90735e-06, -4.05312e-06, 0.000155191, -9.35894e-09, 0.0562035, 0.998419, 1, 1, 1, 1, 1, -9.53674e-07, 0, -3.96371e-06, -0.000253792, 2.10669e-08, -0.0920324, 0.995756, 1, 1, 1, 1.06667, 1, -9.53674e-07, 0, -3.8147e-06, -0.000436975, -7.7025e-08, -0.158448, 0.987367, 1, 1, 1 )
tracks/7/type = "transform"
tracks/7/path = NodePath("Character/Skeleton:mixamorig_LeftArm")
tracks/7/interp = 1
tracks/7/loop_wrap = true
tracks/7/imported = false
tracks/7/enabled = true
tracks/7/keys = PoolRealArray( 0, 1, 0, 7.62939e-06, 9.53674e-07, -0.0894373, 0.0219676, -0.0468946, 0.994645, 1, 1, 1, 0.0666667, 1, 0, 7.62939e-06, 9.53674e-07, -0.0668895, 0.00169338, -0.0790349, 0.994624, 1, 1, 1, 0.133333, 1, 0, 7.15256e-06, 9.53674e-07, -0.0247718, -0.0423816, -0.135434, 0.989569, 1, 1, 1, 0.2, 1, 0, 6.67572e-06, 9.53674e-07, 0.00786526, -0.0798813, -0.170996, 0.981997, 1, 1, 1, 0.266667, 1, -4.76837e-07, 5.72205e-06, 9.53674e-07, -0.00197744, -0.0930939, -0.167636, 0.981442, 1, 1, 1, 0.333333, 1, -4.76837e-07, 5.24521e-06, 9.53674e-07, -0.027935, -0.0725318, -0.159817, 0.984082, 1, 1, 1, 0.4, 1, 0, 4.76837e-06, 9.53674e-07, -0.070801, -0.0472773, -0.133191, 0.987427, 1, 1, 1, 0.466667, 1, 0, 4.76837e-06, 9.53674e-07, -0.116225, -0.0560059, -0.0705796, 0.989128, 1, 1, 1, 0.533333, 1, 0, 4.29153e-06, 0, -0.144074, -0.0423898, -0.0177251, 0.9885, 1, 1, 1, 0.6, 1, 0, 3.33786e-06, 0, -0.178315, -0.00285112, 0.0180956, 0.983803, 1, 1, 1, 0.666667, 1, 0, 2.86102e-06, 0, -0.226168, 0.0319073, 0.0377223, 0.972834, 1, 1, 1, 0.733333, 1, 0, 2.38419e-06, 0, -0.286591, 0.0581365, 0.0424604, 0.955344, 1, 1, 1, 0.8, 1, 0, 1.90735e-06, -9.53674e-07, -0.300115, 0.057992, 0.0444106, 0.951102, 1, 1, 1, 0.866667, 1, 0, 1.90735e-06, -9.53674e-07, -0.238246, 0.018272, 0.022379, 0.970775, 1, 1, 1, 0.933333, 1, 0, 9.53674e-07, 0, -0.180867, 0.0206889, 0.00819741, 0.983256, 1, 1, 1, 1, 1, 0, 4.76837e-07, 0, -0.141312, 0.0427701, 0.000412713, 0.989041, 1, 1, 1, 1.06667, 1, 0, 0, 0, -0.0894373, 0.0219677, -0.0468947, 0.994645, 1, 1, 1 )
tracks/8/type = "transform"
tracks/8/path = NodePath("Character/Skeleton:mixamorig_LeftShoulder")
tracks/8/interp = 1
tracks/8/loop_wrap = true
tracks/8/imported = false
tracks/8/enabled = true
tracks/8/keys = PoolRealArray( 0, 1, 1.54972e-06, -1.43051e-06, 1.62125e-05, 0.120814, 0.0520261, 0.133634, 0.982262, 1, 1, 1, 0.0666667, 1, 1.54972e-06, -1.43051e-06, 1.62125e-05, 0.119217, 0.0495393, 0.125608, 0.983644, 1, 1, 1, 0.133333, 1, 1.49012e-06, -1.43051e-06, 1.62125e-05, 0.116946, 0.0459883, 0.114144, 0.985485, 1, 1, 1, 0.2, 1, 1.43051e-06, -1.43051e-06, 1.62125e-05, 0.109194, 0.0416026, 0.101794, 0.987919, 1, 1, 1, 0.266667, 1, 1.37091e-06, -1.43051e-06, 1.62125e-05, 0.114419, 0.0420759, 0.101522, 0.987335, 1, 1, 1, 0.333333, 1, 1.3113e-06, -1.90735e-06, 1.71661e-05, 0.118449, 0.0433579, 0.104487, 0.986495, 1, 1, 1, 0.4, 1, 1.2517e-06, -1.90735e-06, 1.71661e-05, 0.124995, 0.0472005, 0.115397, 0.984293, 1, 1, 1, 0.466667, 1, 1.19209e-06, -1.90735e-06, 1.71661e-05, 0.135976, 0.0496298, 0.119793, 0.98219, 1, 1, 1, 0.533333, 1, 1.13249e-06, -2.14577e-06, 1.71661e-05, 0.131101, 0.0516249, 0.128484, 0.981651, 1, 1, 1, 0.666667, 1, 1.01328e-06, -2.38419e-06, 1.52588e-05, 0.117777, 0.0532471, 0.138981, 0.981824, 1, 1, 1, 0.733333, 1, 8.9407e-07, -2.38419e-06, 1.52588e-05, 0.118299, 0.0562611, 0.149304, 0.980076, 1, 1, 1, 0.8, 1, 8.34465e-07, -2.38419e-06, 1.52588e-05, 0.113321, 0.055234, 0.147716, 0.980963, 1, 1, 1, 0.866667, 1, 8.9407e-07, -2.86102e-06, 1.62125e-05, 0.112364, 0.0525707, 0.138862, 0.982511, 1, 1, 1, 0.933333, 1, 7.7486e-07, -2.86102e-06, 1.62125e-05, 0.111093, 0.0519218, 0.137181, 0.982926, 1, 1, 1, 1, 1, 7.15256e-07, -2.86102e-06, 1.62125e-05, 0.116868, 0.0529004, 0.138339, 0.982042, 1, 1, 1, 1.06667, 1, 6.55651e-07, -2.86102e-06, 1.62125e-05, 0.120814, 0.0520261, 0.133634, 0.982262, 1, 1, 1 )
tracks/9/type = "transform"
tracks/9/path = NodePath("Character/Skeleton:mixamorig_RightHandIndex3")
tracks/9/interp = 1
tracks/9/loop_wrap = true
tracks/9/imported = false
tracks/9/enabled = true
tracks/9/keys = PoolRealArray( 0, 1, 2.47359e-06, -7.15256e-06, 4.52995e-06, 0.0139222, -0.0901558, 0.0256877, 0.995499, 1, 1, 1, 0.0666667, 1, 2.5034e-06, -6.91414e-06, 4.41074e-06, 0.0139507, -0.0901901, 0.0256741, 0.995496, 1, 1, 1, 0.133333, 1, 2.41399e-06, -6.19888e-06, 4.11272e-06, 0.0136318, -0.0898035, 0.0258268, 0.995531, 1, 1, 1, 0.2, 1, 2.35438e-06, -5.72205e-06, 3.8147e-06, 0.0131889, -0.089267, 0.026039, 0.99558, 1, 1, 1, 0.266667, 1, 2.29478e-06, -5.00679e-06, 3.51667e-06, 0.0136104, -0.0897778, 0.0258369, 0.995534, 1, 1, 1, 0.333333, 1, 2.23517e-06, -4.29153e-06, 3.21865e-06, 0.0130321, -0.0890769, 0.0261141, 0.995597, 1, 1, 1, 0.4, 1, 2.20537e-06, -3.8147e-06, 2.92063e-06, 0.0131571, -0.0892278, 0.0260544, 0.995583, 1, 1, 1, 0.466667, 1, 2.14577e-06, -3.09944e-06, 2.6226e-06, 0.0135607, -0.0897173, 0.0258608, 0.995539, 1, 1, 1, 0.533333, 1, 2.08616e-06, -2.6226e-06, 2.38419e-06, 0.014453, -0.0907991, 0.0254334, 0.99544, 1, 1, 1, 0.6, 1, 2.05636e-06, -1.90735e-06, 1.90735e-06, 0.0145209, -0.0908815, 0.0254008, 0.995432, 1, 1, 1, 0.8, 1, 1.90735e-06, -2.38419e-07, 1.07288e-06, 0.0143241, -0.090643, 0.0254952, 0.995454, 1, 1, 1, 0.866667, 1, 1.84774e-06, 2.38419e-07, 7.7486e-07, 0.0129029, -0.0889201, 0.0261759, 0.995611, 1, 1, 1, 0.933333, 1, 1.81794e-06, 9.53674e-07, 4.76837e-07, 0.0142554, -0.0905596, 0.0255281, 0.995462, 1, 1, 1, 1, 1, 1.75834e-06, 1.43051e-06, 2.38419e-07, 0.014316, -0.0906331, 0.0254991, 0.995455, 1, 1, 1, 1.06667, 1, 1.72853e-06, 2.14577e-06, -1.19209e-07, 0.0139221, -0.0901558, 0.0256877, 0.995499, 1, 1, 1 )
tracks/10/type = "transform"
tracks/10/path = NodePath("Character/Skeleton:mixamorig_RightHandIndex2")
tracks/10/interp = 1
tracks/10/loop_wrap = true
tracks/10/imported = false
tracks/10/enabled = true
tracks/10/keys = PoolRealArray( 0, 1, 8.9407e-07, -2.44379e-06, -3.21865e-06, -0.0386155, -0.268926, 0.178148, 0.945754, 1, 1, 1, 0.0666667, 1, 7.7486e-07, -2.38419e-06, -2.98023e-06, -0.0385791, -0.268953, 0.178137, 0.94575, 1, 1, 1, 0.133333, 1, 6.55651e-07, -2.32458e-06, -2.6226e-06, -0.0389871, -0.26865, 0.178263, 0.945796, 1, 1, 1, 0.2, 1, 5.96046e-07, -2.38419e-06, -2.38419e-06, -0.0395535, -0.268231, 0.178439, 0.945858, 1, 1, 1, 0.266667, 1, 4.76837e-07, -2.38419e-06, -2.26498e-06, -0.0390142, -0.26863, 0.178272, 0.945799, 1, 1, 1, 0.333333, 1, 4.17233e-07, -2.38419e-06, -2.02656e-06, -0.039754, -0.268082, 0.178501, 0.94588, 1, 1, 1, 0.4, 1, 2.98023e-07, -2.32458e-06, -1.66893e-06, -0.0395946, -0.2682, 0.178451, 0.945863, 1, 1, 1, 0.466667, 1, 2.38419e-07, -2.38419e-06, -1.43051e-06, -0.039078, -0.268583, 0.178291, 0.945806, 1, 1, 1, 0.533333, 1, 1.19209e-07, -2.32458e-06, -1.3113e-06, -0.0379366, -0.269428, 0.177937, 0.945678, 1, 1, 1, 0.6, 1, 5.96046e-08, -2.32458e-06, -1.07288e-06, -0.0378496, -0.269493, 0.17791, 0.945669, 1, 1, 1, 0.666667, 1, -5.96046e-08, -2.32458e-06, -8.34465e-07, -0.0375569, -0.269709, 0.177819, 0.945636, 1, 1, 1, 0.733333, 1, -1.78814e-07, -2.32458e-06, -4.76837e-07, -0.0376977, -0.269605, 0.177863, 0.945651, 1, 1, 1, 0.8, 1, -1.78814e-07, -2.32458e-06, -3.57628e-07, -0.0381015, -0.269306, 0.177988, 0.945697, 1, 1, 1, 0.866667, 1, -3.57628e-07, -2.32458e-06, -1.19209e-07, -0.0399193, -0.26796, 0.178552, 0.945898, 1, 1, 1, 0.933333, 1, -3.57628e-07, -2.32458e-06, 1.19209e-07, -0.0382271, -0.269213, 0.178027, 0.945711, 1, 1, 1, 1, 1, -5.36442e-07, -2.26498e-06, 4.76837e-07, -0.0381603, -0.269263, 0.178007, 0.945704, 1, 1, 1, 1.06667, 1, -5.96046e-07, -2.26498e-06, 5.96046e-07, -0.0386154, -0.268926, 0.178148, 0.945754, 1, 1, 1 )
tracks/11/type = "transform"
tracks/11/path = NodePath("Character/Skeleton:mixamorig_RightHandIndex1")
tracks/11/interp = 1
tracks/11/loop_wrap = true
tracks/11/imported = false
tracks/11/enabled = true
tracks/11/keys = PoolRealArray( 0, 1, -1.01328e-06, 7.62939e-06, -1.90735e-06, -0.037641, 0.00747491, -0.113342, 0.992815, 1, 1, 1, 0.0666667, 1, -9.53674e-07, 7.62939e-06, -1.90735e-06, -0.0363491, 0.00769613, -0.116364, 0.992511, 1, 1, 1, 0.133333, 1, -8.34465e-07, 7.15256e-06, -1.90735e-06, -0.0272134, 0.00931933, -0.137418, 0.990095, 1, 1, 1, 0.2, 1, -7.15256e-07, 7.15256e-06, -2.86102e-06, -0.0240373, 0.0098331, -0.143949, 0.989244, 1, 1, 1, 0.266667, 1, -5.36442e-07, 6.67572e-06, -2.86102e-06, -0.027633, 0.00929536, -0.136962, 0.990147, 1, 1, 1, 0.333333, 1, -3.57628e-07, 6.19888e-06, -1.90735e-06, -0.0426451, 0.00612154, -0.102079, 0.993843, 1, 1, 1, 0.4, 1, -2.38419e-07, 6.19888e-06, -1.90735e-06, -0.0410551, 0.00499563, -0.0997216, 0.994156, 1, 1, 1, 0.466667, 1, -5.96046e-08, 5.72205e-06, -1.90735e-06, -0.0416767, 0.00471008, -0.0978311, 0.994319, 1, 1, 1, 0.533333, 1, 5.96046e-08, 5.72205e-06, -1.90735e-06, -0.0517435, 0.00300105, -0.0783343, 0.995579, 1, 1, 1, 0.6, 1, 1.78814e-07, 5.72205e-06, -1.90735e-06, -0.0500452, 0.00276296, -0.0794623, 0.995577, 1, 1, 1, 0.666667, 1, 3.57628e-07, 5.24521e-06, -1.90735e-06, -0.0439537, 0.00353539, -0.0902457, 0.994943, 1, 1, 1, 0.733333, 1, 4.76837e-07, 5.24521e-06, -1.90735e-06, -0.0391213, 0.00402525, -0.0982273, 0.994387, 1, 1, 1, 0.8, 1, 5.96046e-07, 5.72205e-06, -2.86102e-06, -0.038126, 0.00332983, -0.0965689, 0.99459, 1, 1, 1, 0.866667, 1, 8.9407e-07, 4.76837e-06, -1.90735e-06, -0.0230681, 0.00625899, -0.126959, 0.99162, 1, 1, 1, 0.933333, 1, 1.01328e-06, 4.76837e-06, -1.90735e-06, -0.0143564, 0.011061, -0.160543, 0.986862, 1, 1, 1, 1.06667, 1, 1.37091e-06, 4.29153e-06, -1.90735e-06, -0.037641, 0.00747492, -0.113342, 0.992815, 1, 1, 1 )
tracks/12/type = "transform"
tracks/12/path = NodePath("Character/Skeleton:mixamorig_RightHand")
tracks/12/interp = 1
tracks/12/loop_wrap = true
tracks/12/imported = false
tracks/12/enabled = true
tracks/12/keys = PoolRealArray( 0, 1, 3.09944e-06, 3.8147e-06, -3.8147e-06, 0.0432221, -0.0136384, -0.136262, 0.989636, 1, 1, 1, 0.0666667, 1, 3.09944e-06, 3.8147e-06, -3.63588e-06, 0.0617232, -0.0166076, -0.111579, 0.991698, 1, 1, 1, 0.133333, 1, 2.86102e-06, 3.8147e-06, -3.39746e-06, 0.0928714, -0.0332394, -0.0848878, 0.991496, 1, 1, 1, 0.2, 1, 2.86102e-06, 3.8147e-06, -3.15905e-06, 0.0742827, -0.0298607, -0.107803, 0.990943, 1, 1, 1, 0.266667, 1, 2.86102e-06, 3.8147e-06, -2.86102e-06, 0.0308395, -0.0369893, -0.144202, 0.988376, 1, 1, 1, 0.333333, 1, 2.6226e-06, 1.90735e-06, -2.68221e-06, -0.000830836, -0.0478364, -0.200966, 0.978429, 1, 1, 1, 0.4, 1, 2.6226e-06, 1.90735e-06, -2.44379e-06, -0.0125979, -0.069102, -0.233661, 0.969778, 1, 1, 1, 0.466667, 1, 2.6226e-06, 1.90735e-06, -2.20537e-06, -0.00767109, -0.0999205, -0.244558, 0.964442, 1, 1, 1, 0.533333, 1, 2.6226e-06, 1.90735e-06, -1.90735e-06, 0.0179331, -0.101929, -0.225827, 0.968654, 1, 1, 1, 0.6, 1, 2.6226e-06, 1.90735e-06, -1.66893e-06, 0.0798239, -0.0886381, -0.209702, 0.970462, 1, 1, 1, 0.666667, 1, 2.6226e-06, 1.90735e-06, -1.43051e-06, 0.118684, -0.09014, -0.163307, 0.975254, 1, 1, 1, 0.733333, 1, 2.14577e-06, 1.90735e-06, -1.13249e-06, 0.146205, -0.0837891, -0.115231, 0.978941, 1, 1, 1, 0.8, 1, 2.14577e-06, 1.90735e-06, -8.9407e-07, 0.170224, -0.08681, -0.0604283, 0.979712, 1, 1, 1, 0.866667, 1, 1.90735e-06, 0, -7.15256e-07, 0.184401, -0.10335, -0.021165, 0.977173, 1, 1, 1, 0.933333, 1, 1.90735e-06, 0, -4.17233e-07, 0.14847, -0.0763185, -0.0299771, 0.985512, 1, 1, 1, 1, 1, 1.90735e-06, 0, -1.78814e-07, 0.0872492, 0.00580758, -0.0778807, 0.993121, 1, 1, 1, 1.06667, 1, 1.90735e-06, 0, 5.96046e-08, 0.0432221, -0.0136383, -0.136262, 0.989636, 1, 1, 1 )
tracks/13/type = "transform"
tracks/13/path = NodePath("Character/Skeleton:mixamorig_RightForeArm")
tracks/13/interp = 1
tracks/13/loop_wrap = true
tracks/13/imported = false
tracks/13/enabled = true
tracks/13/keys = PoolRealArray( 0, 1, -2.86102e-06, -1.90735e-06, 3.8147e-06, 8.6993e-05, 1.63716e-07, 0.0340034, 0.999422, 1, 1, 1, 0.0666667, 1, -1.90735e-06, -1.90735e-06, 3.54648e-06, 2.45634e-05, 2.35167e-07, 0.00957343, 0.999954, 1, 1, 1, 0.133333, 1, -1.90735e-06, -1.90735e-06, 3.06964e-06, -0.000136186, 1.08101e-07, -0.0533199, 0.998577, 1, 1, 1, 0.2, 1, -1.90735e-06, -1.90735e-06, 2.563e-06, -0.000168604, 1.93916e-07, -0.0660403, 0.997817, 1, 1, 1, 0.266667, 1, -1.90735e-06, -1.90735e-06, 2.08616e-06, -0.000100986, 1.60014e-07, -0.0394915, 0.99922, 1, 1, 1, 0.333333, 1, -1.90735e-06, -1.90735e-06, 1.57952e-06, 2.57147e-05, 3.17281e-07, 0.0100562, 0.999949, 1, 1, 1, 0.4, 1, -1.90735e-06, -1.90735e-06, 1.10269e-06, 0.00012223, 1.00597e-07, 0.0479215, 0.998851, 1, 1, 1, 0.466667, 1, -1.90735e-06, -1.90735e-06, 5.96046e-07, 0.000277311, 2.50677e-07, 0.10864, 0.994081, 1, 1, 1, 0.533333, 1, -1.90735e-06, 0, 1.19209e-07, 0.00036777, 2.35898e-07, 0.144033, 0.989573, 1, 1, 1, 0.6, 1, -1.90735e-06, 0, -3.8743e-07, 0.000389143, 8.98367e-08, 0.152442, 0.988312, 1, 1, 1, 0.666667, 1, -9.53674e-07, 0, -8.64267e-07, 0.000361515, 1.05678e-07, 0.141575, 0.989927, 1, 1, 1, 0.733333, 1, -9.53674e-07, 0, -1.37091e-06, 0.000359444, 2.23147e-07, 0.14082, 0.990035, 1, 1, 1, 0.8, 1, -9.53674e-07, 0, -1.84774e-06, 0.000389731, 1.38442e-07, 0.15266, 0.988279, 1, 1, 1, 0.866667, 1, -9.53674e-07, 0, -2.35438e-06, 0.000391332, 2.14187e-07, 0.153229, 0.988191, 1, 1, 1, 0.933333, 1, -9.53674e-07, 0, -2.83122e-06, 0.000313468, 1.28394e-07, 0.122813, 0.99243, 1, 1, 1, 1, 1, -9.53674e-07, 0, -3.33786e-06, 0.000214618, 2.01295e-07, 0.084062, 0.99646, 1, 1, 1, 1.06667, 1, -9.53674e-07, 0, -3.8147e-06, 8.68519e-05, 1.22098e-07, 0.0340033, 0.999422, 1, 1, 1 )
tracks/14/type = "transform"
tracks/14/path = NodePath("Character/Skeleton:mixamorig_RightArm")
tracks/14/interp = 1
tracks/14/loop_wrap = true
tracks/14/imported = false
tracks/14/enabled = true
tracks/14/keys = PoolRealArray( 0, 1, -9.53674e-07, -9.53674e-07, 4.76837e-06, -0.199605, -0.0419321, 0.024876, 0.978663, 1, 1, 1, 0.0666667, 1, -9.53674e-07, -9.53674e-07, 4.76837e-06, -0.216439, -0.0573137, 0.0136186, 0.974517, 1, 1, 1, 0.133333, 1, -9.53674e-07, -9.53674e-07, 4.76837e-06, -0.260287, -0.0782622, -0.00608197, 0.962335, 1, 1, 1, 0.2, 1, -9.53674e-07, -1.43051e-06, 4.76837e-06, -0.319606, -0.0986375, -0.0186377, 0.942218, 1, 1, 1, 0.266667, 1, -1.43051e-06, -1.43051e-06, 4.76837e-06, -0.329812, -0.0868185, -0.0203631, 0.939825, 1, 1, 1, 0.333333, 1, -1.90735e-06, -9.53674e-07, 3.8147e-06, -0.278448, -0.0785972, 0.0106635, 0.957171, 1, 1, 1, 0.4, 1, -1.90735e-06, -9.53674e-07, 3.8147e-06, -0.214703, -0.0615421, 0.053519, 0.973268, 1, 1, 1, 0.466667, 1, -1.90735e-06, -9.53674e-07, 3.8147e-06, -0.176067, -0.050326, 0.0613366, 0.981176, 1, 1, 1, 0.533333, 1, -2.38419e-06, -9.53674e-07, 3.8147e-06, -0.143069, -0.00356306, 0.0897548, 0.985628, 1, 1, 1, 0.6, 1, -2.38419e-06, -9.53674e-07, 3.8147e-06, -0.118825, 0.0220019, 0.135861, 0.98333, 1, 1, 1, 0.666667, 1, -2.38419e-06, -9.53674e-07, 3.8147e-06, -0.0969339, 0.0400911, 0.175197, 0.978929, 1, 1, 1, 0.733333, 1, -2.38419e-06, -9.53674e-07, 3.8147e-06, -0.0811163, 0.0574365, 0.197455, 0.97526, 1, 1, 1, 0.8, 1, -2.86102e-06, -9.53674e-07, 2.86102e-06, -0.0858499, 0.0590606, 0.195542, 0.975144, 1, 1, 1, 0.866667, 1, -2.86102e-06, -9.53674e-07, 1.90735e-06, -0.121528, 0.0181835, 0.171492, 0.977492, 1, 1, 1, 0.933333, 1, -2.86102e-06, -9.53674e-07, 1.90735e-06, -0.158019, 0.000580578, 0.124612, 0.979542, 1, 1, 1, 1, 1, -2.86102e-06, -9.53674e-07, 1.90735e-06, -0.179363, -0.00326272, 0.0654544, 0.981598, 1, 1, 1, 1.06667, 1, -3.33786e-06, -9.53674e-07, 2.86102e-06, -0.199605, -0.041932, 0.0248759, 0.978663, 1, 1, 1 )
tracks/15/type = "transform"
tracks/15/path = NodePath("Character/Skeleton:mixamorig_RightShoulder")
tracks/15/interp = 1
tracks/15/loop_wrap = true
tracks/15/imported = false
tracks/15/enabled = true
tracks/15/keys = PoolRealArray( 0, 1, -1.01328e-06, -4.76837e-07, -7.62939e-06, 0.168613, 2.35936e-05, -0.014493, 0.985576, 1, 1, 1, 0.0666667, 1, -9.83477e-07, -4.76837e-07, -7.62939e-06, 0.166407, -0.00063147, -0.0171674, 0.985907, 1, 1, 1, 0.133333, 1, -9.23872e-07, -4.76837e-07, -7.62939e-06, 0.152716, -0.00222195, -0.0238808, 0.987979, 1, 1, 1, 0.2, 1, -8.64267e-07, -4.76837e-07, -7.62939e-06, 0.151888, -0.00689999, -0.0425764, 0.987456, 1, 1, 1, 0.266667, 1, -8.04663e-07, -4.76837e-07, -7.62939e-06, 0.145143, -0.00796041, -0.0469856, 0.988262, 1, 1, 1, 0.333333, 1, -7.45058e-07, -4.76837e-07, -7.62939e-06, 0.145721, -0.00581319, -0.0384011, 0.988563, 1, 1, 1, 0.4, 1, -6.85453e-07, -4.76837e-07, -7.62939e-06, 0.15107, -0.00494493, -0.0347943, 0.987898, 1, 1, 1, 0.466667, 1, -6.25849e-07, -4.76837e-07, -7.62939e-06, 0.150874, -0.00495598, -0.0348439, 0.987926, 1, 1, 1, 0.533333, 1, -5.66244e-07, -4.76837e-07, -7.62939e-06, 0.157287, -0.00359882, -0.029257, 0.987113, 1, 1, 1, 0.6, 1, -5.06639e-07, -4.76837e-07, -7.62939e-06, 0.160319, -0.00213575, -0.0233678, 0.986786, 1, 1, 1, 0.666667, 1, -4.17233e-07, -4.76837e-07, -7.62939e-06, 0.156287, 4.69442e-05, -0.014959, 0.987598, 1, 1, 1, 0.733333, 1, -3.57628e-07, -4.76837e-07, -7.62939e-06, 0.151136, 0.00345312, -0.00199176, 0.988505, 1, 1, 1, 0.8, 1, -2.98023e-07, -4.76837e-07, -7.62939e-06, 0.155142, 0.0046958, 0.00276908, 0.987877, 1, 1, 1, 0.866667, 1, -2.38419e-07, -4.76837e-07, -7.62939e-06, 0.165674, 0.00317455, -0.0026006, 0.986172, 1, 1, 1, 0.933333, 1, -1.78814e-07, -4.76837e-07, -7.62939e-06, 0.177638, 0.00253565, -0.00394664, 0.984085, 1, 1, 1, 1, 1, -1.19209e-07, -4.76837e-07, -7.62939e-06, 0.175553, 0.0016172, -0.00760262, 0.984439, 1, 1, 1, 1.06667, 1, -5.96046e-08, -4.76837e-07, -7.62939e-06, 0.168613, 2.34684e-05, -0.0144932, 0.985576, 1, 1, 1 )
tracks/16/type = "transform"
tracks/16/path = NodePath("Character/Skeleton:mixamorig_Spine2")
tracks/16/interp = 1
tracks/16/loop_wrap = true
tracks/16/imported = false
tracks/16/enabled = true
tracks/16/keys = PoolRealArray( 0, 1, -1.78814e-07, -7.62939e-06, -8.19564e-07, 0.0127019, 0.000636348, 0.00952485, 0.999874, 1, 1, 1, 0.0666667, 1, -1.73226e-07, -7.62939e-06, -8.19564e-07, 0.0105257, 0.00579172, 0.00471265, 0.999917, 1, 1, 1, 0.133333, 1, -1.6205e-07, -7.62939e-06, -8.19564e-07, 0.00771594, 0.0160848, -0.0102659, 0.999788, 1, 1, 1, 0.2, 1, -1.50874e-07, -7.62939e-06, -8.19564e-07, 0.00752295, 0.0292601, -0.0179513, 0.999382, 1, 1, 1, 0.266667, 1, -1.37836e-07, -7.62939e-06, -8.19564e-07, 0.00866671, 0.0416901, -0.0162287, 0.998961, 1, 1, 1, 0.333333, 1, -1.2666e-07, -7.62939e-06, -8.19564e-07, 0.0037994, 0.0432402, -0.00805047, 0.999025, 1, 1, 1, 0.4, 1, -1.15484e-07, -7.62939e-06, -8.19564e-07, 0.00185315, 0.035481, -0.00739998, 0.999341, 1, 1, 1, 0.466667, 1, -1.04308e-07, -7.62939e-06, -8.19564e-07, 0.00640493, 0.0225369, -0.00480116, 0.999714, 1, 1, 1, 0.533333, 1, -9.31323e-08, -7.62939e-06, -8.19564e-07, 0.0083401, 0.00334761, -0.000321736, 0.99996, 1, 1, 1, 0.6, 1, -8.00937e-08, -7.62939e-06, -8.19564e-07, 0.00902394, -0.0143101, 0.00804036, 0.999825, 1, 1, 1, 0.666667, 1, -6.89179e-08, -7.62939e-06, -8.19564e-07, 0.0105754, -0.0298342, 0.0221502, 0.999253, 1, 1, 1, 0.733333, 1, -5.7742e-08, -7.62939e-06, -8.19564e-07, 0.0112798, -0.0437677, 0.0275633, 0.998598, 1, 1, 1, 0.8, 1, -4.65661e-08, -7.62939e-06, -8.19564e-07, 0.0118561, -0.0482864, 0.0261264, 0.998421, 1, 1, 1, 0.866667, 1, -3.53903e-08, -7.62939e-06, -8.19564e-07, 0.00948309, -0.0428168, 0.0238762, 0.998753, 1, 1, 1, 0.933333, 1, -2.23517e-08, -7.62939e-06, -8.19564e-07, 0.00987347, -0.0347557, 0.0218587, 0.999108, 1, 1, 1, 1, 1, -1.11759e-08, -7.62939e-06, -8.19564e-07, 0.013685, -0.0146532, 0.0162976, 0.999666, 1, 1, 1, 1.06667, 1, 0, -7.62939e-06, -8.19564e-07, 0.0127019, 0.000636352, 0.00952485, 0.999874, 1, 1, 1 )
tracks/17/type = "transform"
tracks/17/path = NodePath("Character/Skeleton:mixamorig_Spine1")
tracks/17/interp = 1
tracks/17/loop_wrap = true
tracks/17/imported = false
tracks/17/enabled = true
tracks/17/keys = PoolRealArray( 0, 1, -2.27243e-07, 7.62939e-06, -1.19209e-07, 0.0128845, 0.00030066, 0.00892895, 0.999877, 1, 1, 1, 0.0666667, 1, -2.2538e-07, 7.62939e-06, -1.04308e-07, 0.01062, 0.00545921, 0.00426403, 0.99992, 1, 1, 1, 0.133333, 1, -2.21655e-07, 7.62939e-06, -7.45058e-08, 0.00798737, 0.0160646, -0.0104449, 0.999785, 1, 1, 1, 0.2, 1, -2.19792e-07, 7.62939e-06, -4.47035e-08, 0.00815816, 0.0295045, -0.0177421, 0.999374, 1, 1, 1, 0.266667, 1, -2.16067e-07, 7.62939e-06, -1.49012e-08, 0.00906666, 0.0419703, -0.015524, 0.998957, 1, 1, 1, 0.333333, 1, -2.12342e-07, 7.62939e-06, 1.49012e-08, 0.00385659, 0.0430112, -0.00782104, 0.999037, 1, 1, 1, 0.4, 1, -2.08616e-07, 7.62939e-06, 4.47035e-08, 0.0021994, 0.0350671, -0.0073721, 0.999355, 1, 1, 1, 0.466667, 1, -2.06754e-07, 7.62939e-06, 7.45058e-08, 0.00654094, 0.0221503, -0.00462732, 0.999723, 1, 1, 1, 0.533333, 1, -2.03028e-07, 7.62939e-06, 1.04308e-07, 0.00828291, 0.00301278, -0.000584625, 0.999961, 1, 1, 1, 0.6, 1, -1.99303e-07, 7.62939e-06, 1.49012e-07, 0.00925739, -0.0146502, 0.00726944, 0.999823, 1, 1, 1, 0.666667, 1, -1.9744e-07, 7.62939e-06, 1.78814e-07, 0.0119924, -0.0304622, 0.0208259, 0.999247, 1, 1, 1, 0.733333, 1, -1.93715e-07, 7.62939e-06, 2.08616e-07, 0.0128552, -0.0445704, 0.0259016, 0.998588, 1, 1, 1, 0.8, 1, -1.8999e-07, 7.62939e-06, 2.38419e-07, 0.0131951, -0.0490173, 0.0241735, 0.998418, 1, 1, 1, 0.866667, 1, -1.86265e-07, 7.62939e-06, 2.68221e-07, 0.0109963, -0.0431098, 0.0224154, 0.998758, 1, 1, 1, 0.933333, 1, -1.84402e-07, 7.62939e-06, 2.98023e-07, 0.0109803, -0.0349142, 0.020676, 0.999116, 1, 1, 1, 1, 1, -1.80677e-07, 7.62939e-06, 3.27826e-07, 0.0140925, -0.0149077, 0.0152339, 0.999673, 1, 1, 1, 1.06667, 1, -1.76951e-07, 7.62939e-06, 3.57628e-07, 0.0128845, 0.00030066, 0.00892895, 0.999877, 1, 1, 1 )
tracks/18/type = "transform"
tracks/18/path = NodePath("Character/Skeleton:mixamorig_Spine")
tracks/18/interp = 1
tracks/18/loop_wrap = true
tracks/18/imported = false
tracks/18/enabled = true
tracks/18/keys = PoolRealArray( 0, 1, 6.98492e-08, 7.62939e-06, -1.3411e-07, 0.0453388, -0.00970236, -0.0018064, 0.998923, 1, 1, 1, 0.0666667, 1, 6.93835e-08, 7.62939e-06, -1.3411e-07, 0.0419236, -0.00225121, -0.00624353, 0.999099, 1, 1, 1, 0.133333, 1, 6.84522e-08, 7.62939e-06, -1.3411e-07, 0.0337151, 0.0191158, 0.0191906, 0.999064, 1, 1, 1, 0.2, 1, 6.75209e-08, 7.62939e-06, -1.3411e-07, 0.0239183, 0.0333782, 0.0363936, 0.998494, 1, 1, 1, 0.266667, 1, 6.65896e-08, 7.62939e-06, -1.3411e-07, 0.0272111, 0.0373845, 0.0163677, 0.998796, 1, 1, 1, 0.333333, 1, 6.56582e-08, 7.62939e-06, -1.3411e-07, 0.0213905, 0.0350396, -0.00284888, 0.999153, 1, 1, 1, 0.4, 1, 6.47269e-08, 7.62939e-06, -1.3411e-07, 0.0268087, 0.0284611, -0.0235017, 0.998959, 1, 1, 1, 0.466667, 1, 6.37956e-08, 7.62939e-06, -1.3411e-07, 0.0333677, -0.00596222, -0.016423, 0.999291, 1, 1, 1, 0.533333, 1, 6.28643e-08, 7.62939e-06, -1.3411e-07, 0.0353759, -0.0271949, -0.0102689, 0.998951, 1, 1, 1, 0.6, 1, 6.14673e-08, 7.62939e-06, -1.3411e-07, 0.0355854, -0.0438509, -0.00656393, 0.998383, 1, 1, 1, 0.666667, 1, 6.0536e-08, 7.62939e-06, -1.3411e-07, 0.0328292, -0.0571163, -0.0248997, 0.997517, 1, 1, 1, 0.733333, 1, 5.96046e-08, 7.62939e-06, -1.3411e-07, 0.0216038, -0.0616193, -0.0379951, 0.997142, 1, 1, 1, 0.8, 1, 5.86733e-08, 7.62939e-06, -1.3411e-07, 0.0292471, -0.0505804, -0.0175829, 0.998137, 1, 1, 1, 0.866667, 1, 5.7742e-08, 7.62939e-06, -1.3411e-07, 0.026136, -0.0587032, -0.000721887, 0.997933, 1, 1, 1, 0.933333, 1, 5.68107e-08, 7.62939e-06, -1.3411e-07, 0.0293307, -0.0410296, 0.00881314, 0.998688, 1, 1, 1, 1, 1, 5.58794e-08, 7.62939e-06, -1.3411e-07, 0.0349785, -0.0184048, 0.0024618, 0.999216, 1, 1, 1, 1.06667, 1, 5.4948e-08, 7.62939e-06, -1.3411e-07, 0.0453388, -0.00970235, -0.0018064, 0.998923, 1, 1, 1 )
tracks/19/type = "transform"
tracks/19/path = NodePath("Character/Skeleton:mixamorig_LeftToeBase")
tracks/19/interp = 1
tracks/19/loop_wrap = true
tracks/19/imported = false
tracks/19/enabled = true
tracks/19/keys = PoolRealArray( 0, 1, 4.65661e-10, 0, 0, 0.230195, 0.00596125, 0.00452132, 0.973116, 1, 1, 1, 0.0666667, 1, 6.1933e-08, 0, 0, 0.0939446, 0.01331, 0.00249877, 0.995485, 1, 1, 1, 0.133333, 1, 1.84868e-07, 0, 0, 0.0470654, 0.000624254, 0.00095955, 0.998891, 1, 1, 1, 0.2, 1, 3.08268e-07, 0, 0, 0.0665465, 0.000882659, 0.00135666, 0.997782, 1, 1, 1, 0.266667, 1, 4.30737e-07, 0, 0, 0.078776, 0.00104487, 0.00160602, 0.996891, 1, 1, 1, 0.333333, 1, 5.54137e-07, 0, 0, 0.0733166, 0.00097246, 0.0014947, 0.997307, 1, 1, 1, 0.4, 1, 6.77072e-07, 0, 0, 0.0576244, 0.000764318, 0.00117477, 0.998337, 1, 1, 1, 0.466667, 1, 8.00472e-07, 0, 0, 0.0605361, 0.000802947, 0.00123415, 0.998165, 1, 1, 1, 0.6, 1, 1.04634e-06, 0, 0, 0.0537137, 0.000712444, 0.00109504, 0.998556, 1, 1, 1, 0.666667, 1, 1.16928e-06, 0, 0, 0.0535855, 0.000710741, 0.00109242, 0.998562, 1, 1, 1, 0.733333, 1, 1.29221e-06, 0, 0, 0.0660609, 0.000876217, 0.00134678, 0.997814, 1, 1, 1, 0.8, 1, 1.41561e-06, 0, 0, 0.121488, 0.0016114, 0.00247676, 0.992589, 1, 1, 1, 0.866667, 1, 1.53854e-06, 0, 0, 0.337475, -0.00645607, 0.00488383, 0.9413, 1, 1, 1, 0.933333, 1, 1.66195e-06, 0, 0, 0.650539, -0.0626259, 0.0489464, 0.755302, 1, 1, 1, 1, 1, 1.78441e-06, 0, 0, 0.536193, 0.00729042, 0.010803, 0.843995, 1, 1, 1, 1.06667, 1, 1.90781e-06, 0, 0, 0.230197, 0.00596127, 0.00452133, 0.973116, 1, 1, 1 )
tracks/20/type = "transform"
tracks/20/path = NodePath("Character/Skeleton:mixamorig_LeftFoot")
tracks/20/interp = 1
tracks/20/loop_wrap = true
tracks/20/imported = false
tracks/20/enabled = true
tracks/20/keys = PoolRealArray( 0, 1, 9.53674e-07, -4.76837e-06, 2.86102e-06, -0.0967032, 0.0713634, 0.0179274, 0.99259, 1, 1, 1, 0.0666667, 1, 1.07288e-06, -4.76837e-06, 2.86102e-06, -0.1276, 0.0689634, 0.0135335, 0.989333, 1, 1, 1, 0.133333, 1, 1.07288e-06, -4.76837e-06, 2.86102e-06, -0.105691, 0.0132778, -0.017006, 0.994165, 1, 1, 1, 0.2, 1, 1.07288e-06, -4.29153e-06, 1.90735e-06, 0.0597525, 0.014072, -0.00121128, 0.998113, 1, 1, 1, 0.266667, 1, 1.07288e-06, -3.8147e-06, 1.90735e-06, -0.0787338, 0.0481814, 0.00712207, 0.995705, 1, 1, 1, 0.333333, 1, 1.19209e-06, -3.8147e-06, 1.90735e-06, -0.343407, 0.0618854, -0.00733665, 0.937117, 1, 1, 1, 0.4, 1, 1.3113e-06, -3.8147e-06, 1.90735e-06, -0.123858, 0.0922672, 0.0274782, 0.987619, 1, 1, 1, 0.466667, 1, 1.3113e-06, -3.8147e-06, 9.53674e-07, -0.0261061, 0.0969171, 0.0372688, 0.994252, 1, 1, 1, 0.533333, 1, 1.43051e-06, -3.33786e-06, 9.53674e-07, -0.00434411, 0.0818005, 0.0294265, 0.996205, 1, 1, 1, 0.6, 1, 1.43051e-06, -3.33786e-06, 9.53674e-07, -0.0426389, 0.0602618, 0.0101975, 0.997219, 1, 1, 1, 0.666667, 1, 1.54972e-06, -3.33786e-06, 9.53674e-07, -0.017005, 0.0828312, -0.0605288, 0.994578, 1, 1, 1, 0.733333, 1, 1.54972e-06, -2.86102e-06, 0, 0.0501848, 0.105428, -0.134055, 0.984071, 1, 1, 1, 0.8, 1, 1.54972e-06, -2.38419e-06, 9.53674e-07, 0.0932929, 0.0797076, -0.142536, 0.982154, 1, 1, 1, 0.866667, 1, 1.66893e-06, -2.38419e-06, 9.53674e-07, 0.0935685, 0.00469621, -0.0746496, 0.992799, 1, 1, 1, 0.933333, 1, 1.66893e-06, -2.38419e-06, 9.53674e-07, -0.281863, -0.0361271, -0.0654062, 0.956541, 1, 1, 1, 1, 1, 1.78814e-06, -1.43051e-06, 0, -0.214875, 0.0129065, -0.0315735, 0.976046, 1, 1, 1, 1.06667, 1, 1.90735e-06, -1.43051e-06, 0, -0.0967038, 0.0713634, 0.0179273, 0.99259, 1, 1, 1 )
tracks/21/type = "transform"
tracks/21/path = NodePath("Character/Skeleton:mixamorig_LeftLeg")
tracks/21/interp = 1
tracks/21/loop_wrap = true
tracks/21/imported = false
tracks/21/enabled = true
tracks/21/keys = PoolRealArray( 0, 1, 1.41561e-07, -5.72205e-06, -4.76837e-06, -0.328906, 0.0922102, 0.0041648, 0.939841, 1, 1, 1, 0.0666667, 1, 1.93715e-07, -5.72205e-06, -4.76837e-06, -0.165584, 0.0878194, -0.0153682, 0.982158, 1, 1, 1, 0.133333, 1, 2.90573e-07, -5.72205e-06, -4.76837e-06, 0.008404, 0.0666567, -0.015949, 0.997613, 1, 1, 1, 0.2, 1, 3.94881e-07, -5.72205e-06, -4.76837e-06, 0.0176568, 0.0522465, 0.0310245, 0.997996, 1, 1, 1, 0.266667, 1, 4.95464e-07, -5.72205e-06, -3.8147e-06, -0.0346037, 0.090586, 0.0160275, 0.995158, 1, 1, 1, 0.333333, 1, 5.99772e-07, -3.8147e-06, -2.86102e-06, 0.098182, 0.112684, -0.00482806, 0.988756, 1, 1, 1, 0.4, 1, 7.00355e-07, -3.8147e-06, -2.86102e-06, -0.199071, 0.0994459, -0.0235495, 0.974642, 1, 1, 1, 0.466667, 1, 7.97212e-07, -3.8147e-06, -2.86102e-06, -0.208302, 0.109793, -0.014326, 0.971777, 1, 1, 1, 0.533333, 1, 9.0152e-07, -3.8147e-06, -2.86102e-06, -0.0959743, 0.130087, 0.00786145, 0.986815, 1, 1, 1, 0.6, 1, 1.0021e-06, -3.8147e-06, -2.86102e-06, 0.102111, 0.158161, 0.0350258, 0.981495, 1, 1, 1, 0.666667, 1, 1.10269e-06, -3.8147e-06, -2.86102e-06, 0.186246, 0.126246, 0.0352163, 0.973722, 1, 1, 1, 0.733333, 1, 1.20327e-06, -3.8147e-06, -2.86102e-06, 0.203382, 0.0848987, 0.0301585, 0.974945, 1, 1, 1, 0.8, 1, 1.30385e-06, -3.8147e-06, -1.90735e-06, 0.161855, 0.088358, 0.0652392, 0.980683, 1, 1, 1, 0.866667, 1, 1.40816e-06, -1.90735e-06, -9.53674e-07, -0.268276, 0.117506, 0.128018, 0.94754, 1, 1, 1, 0.933333, 1, 1.50874e-06, -1.90735e-06, -9.53674e-07, -0.390967, 0.0998601, 0.0893139, 0.910602, 1, 1, 1, 1, 1, 1.60933e-06, -1.90735e-06, -9.53674e-07, -0.427888, 0.0936363, 0.0447653, 0.897853, 1, 1, 1, 1.06667, 1, 1.71363e-06, -1.90735e-06, -9.53674e-07, -0.328905, 0.0922102, 0.00416482, 0.939841, 1, 1, 1 )
tracks/22/type = "transform"
tracks/22/path = NodePath("Character/Skeleton:mixamorig_LeftUpLeg")
tracks/22/interp = 1
tracks/22/loop_wrap = true
tracks/22/imported = false
tracks/22/enabled = true
tracks/22/keys = PoolRealArray( 0, 1, 1.90735e-06, 3.8147e-06, -7.15256e-07, 0.234862, -0.0661264, -0.00836238, 0.969741, 1, 1, 1, 0.0666667, 1, 1.90735e-06, 3.8147e-06, -7.00355e-07, 0.216637, -0.0633102, -0.0225012, 0.973937, 1, 1, 1, 0.133333, 1, 1.90735e-06, 3.8147e-06, -6.85453e-07, 0.257927, -0.0450329, -0.00711297, 0.965088, 1, 1, 1, 0.2, 1, 1.90735e-06, 3.8147e-06, -6.70552e-07, 0.304944, -0.0208447, -0.00659107, 0.952119, 1, 1, 1, 0.266667, 1, 1.90735e-06, 3.8147e-06, -6.55651e-07, 0.345796, -0.0357882, -0.0169653, 0.937473, 1, 1, 1, 0.333333, 1, 1.90735e-06, 3.8147e-06, -6.4075e-07, 0.273635, -0.0286565, -0.0326164, 0.960853, 1, 1, 1, 0.4, 1, 1.90735e-06, 3.8147e-06, -6.25849e-07, 0.326475, -0.0386881, -0.0389764, 0.943609, 1, 1, 1, 0.466667, 1, 1.90735e-06, 3.8147e-06, -6.10948e-07, 0.233375, -0.0313381, -0.050744, 0.970556, 1, 1, 1, 0.533333, 1, 1.90735e-06, 3.8147e-06, -5.96046e-07, 0.0979533, -0.0199224, -0.0513617, 0.993665, 1, 1, 1, 0.6, 1, 1.90735e-06, 3.8147e-06, -5.81145e-07, -0.0572993, -0.0216714, -0.0464259, 0.997042, 1, 1, 1, 0.666667, 1, 1.90735e-06, 3.8147e-06, -5.66244e-07, -0.151587, -0.0406723, -0.0402305, 0.986787, 1, 1, 1, 0.733333, 1, 1.90735e-06, 3.8147e-06, -5.51343e-07, -0.220526, -0.0565912, -0.0275393, 0.973348, 1, 1, 1, 0.8, 1, 1.90735e-06, 3.8147e-06, -5.36442e-07, -0.275236, -0.0768072, 0.00735459, 0.958275, 1, 1, 1, 0.866667, 1, 1.90735e-06, 3.8147e-06, -5.21541e-07, -0.092297, -0.095488, 0.0456299, 0.990092, 1, 1, 1, 0.933333, 1, 1.90735e-06, 3.8147e-06, -5.06639e-07, 0.11256, -0.0518879, 0.0615424, 0.990379, 1, 1, 1, 1, 1, 1.90735e-06, 3.8147e-06, -4.91738e-07, 0.212334, -0.0584813, 0.0321834, 0.974915, 1, 1, 1, 1.06667, 1, 1.90735e-06, 3.8147e-06, -4.76837e-07, 0.234862, -0.0661264, -0.00836241, 0.969741, 1, 1, 1 )
tracks/23/type = "transform"
tracks/23/path = NodePath("Character/Skeleton:mixamorig_RightToeBase")
tracks/23/interp = 1
tracks/23/loop_wrap = true
tracks/23/imported = false
tracks/23/enabled = true
tracks/23/keys = PoolRealArray( 0, 1, -9.53674e-07, 1.90735e-06, -1.90735e-06, 0.0433601, -0.000578476, -0.000877988, 0.999059, 1, 1, 1, 0.0666667, 1, -8.61384e-07, 1.90735e-06, -1.90735e-06, 0.0407441, -0.000543582, -0.000825036, 0.999169, 1, 1, 1, 0.133333, 1, -6.76801e-07, 1.90735e-06, -1.90735e-06, 0.0396363, -0.000528791, -0.000802611, 0.999214, 1, 1, 1, 0.2, 1, -4.92219e-07, 1.90735e-06, -1.90735e-06, 0.0522912, -0.000697622, -0.00105886, 0.998631, 1, 1, 1, 0.266667, 1, -3.07637e-07, 1.90735e-06, -1.90735e-06, 0.0941804, -0.00125644, -0.00190706, 0.995553, 1, 1, 1, 0.333333, 1, -1.23055e-07, 1.90735e-06, -1.90735e-06, 0.22432, -0.00299259, -0.00454233, 0.9745, 1, 1, 1, 0.4, 1, 6.15273e-08, 1.90735e-06, -1.90735e-06, 0.564628, 0.093164, -0.0456671, 0.818798, 1, 1, 1, 0.466667, 1, 2.46109e-07, 1.90735e-06, -1.90735e-06, 0.491285, 0.12386, -0.0426149, 0.861093, 1, 1, 1, 0.533333, 1, 4.30691e-07, 1.90735e-06, -1.90735e-06, 0.385887, -0.00666672, -0.00749616, 0.922492, 1, 1, 1, 0.6, 1, 6.15273e-07, 0, 0, 0.0603174, -0.000804656, -0.00122138, 0.998178, 1, 1, 1, 0.666667, 1, 7.99854e-07, 0, 0, 0.0566154, -0.000755296, -0.00114641, 0.998395, 1, 1, 1, 0.733333, 1, 9.84437e-07, 0, 0, 0.0546752, -0.000729409, -0.00110713, 0.998503, 1, 1, 1, 0.8, 1, 1.16902e-06, 0, 0, 0.102186, -0.00136324, -0.00206917, 0.994762, 1, 1, 1, 0.866667, 1, 1.3536e-06, 0, 0, 0.0659936, -0.000880428, -0.00133631, 0.997819, 1, 1, 1, 0.933333, 1, 1.53818e-06, 0, 0, 0.0551456, -0.000735706, -0.00111665, 0.998477, 1, 1, 1, 1.06667, 1, 1.90735e-06, -9.53674e-07, 0, 0.0433602, -0.000578477, -0.000878013, 0.999059, 1, 1, 1 )
tracks/24/type = "transform"
tracks/24/path = NodePath("Character/Skeleton:mixamorig_RightFoot")
tracks/24/interp = 1
tracks/24/loop_wrap = true
tracks/24/imported = false
tracks/24/enabled = true
tracks/24/keys = PoolRealArray( 0, 1, -9.53674e-07, -4.76837e-07, 0, 0.0399564, -0.0832992, -0.0214685, 0.995492, 1, 1, 1, 0.0666667, 1, -1.19209e-06, -4.76837e-07, 0, 0.0451927, -0.0793775, -0.0186813, 0.995644, 1, 1, 1, 0.133333, 1, -1.19209e-06, 0, 0, 0.0570347, -0.105004, -0.00317734, 0.99283, 1, 1, 1, 0.2, 1, -1.19209e-06, 0, 0, 0.131019, -0.137827, 0.0610672, 0.979851, 1, 1, 1, 0.266667, 1, -1.19209e-06, 0, 0, 0.171368, -0.114293, 0.0893365, 0.974469, 1, 1, 1, 0.333333, 1, -1.19209e-06, 4.76837e-07, 0, 0.196055, -0.0209967, 0.0623908, 0.978381, 1, 1, 1, 0.4, 1, -1.19209e-06, 4.76837e-07, 0, -0.124377, 0.0957743, 0.106264, 0.981869, 1, 1, 1, 0.466667, 1, -1.19209e-06, 4.76837e-07, 0, -0.142007, 0.028447, 0.0645417, 0.98735, 1, 1, 1, 0.533333, 1, -1.19209e-06, 4.76837e-07, 0, -0.0891342, -0.0320145, 0.0200445, 0.995303, 1, 1, 1, 0.6, 1, -1.43051e-06, 4.76837e-07, 0, 0.00291588, -0.0110155, 0.0335688, 0.999371, 1, 1, 1, 0.666667, 1, -1.43051e-06, 4.76837e-07, 0, 0.0247572, -0.0165581, 0.0263661, 0.999209, 1, 1, 1, 0.733333, 1, -1.43051e-06, 4.76837e-07, 0, 0.0967424, -0.050168, -0.00783295, 0.994014, 1, 1, 1, 0.8, 1, -1.66893e-06, 4.76837e-07, 0, -0.0678646, -0.0710295, -0.00942107, 0.995118, 1, 1, 1, 0.866667, 1, -1.66893e-06, 9.53674e-07, -9.53674e-07, -0.118317, -0.100276, -0.0274538, 0.987518, 1, 1, 1, 0.933333, 1, -1.66893e-06, 9.53674e-07, -9.53674e-07, 0.0156679, -0.119915, -0.0491052, 0.991445, 1, 1, 1, 1, 1, -1.66893e-06, 9.53674e-07, -9.53674e-07, 0.0651354, -0.107021, -0.0411782, 0.991266, 1, 1, 1, 1.06667, 1, -1.90735e-06, 1.43051e-06, -9.53674e-07, 0.0399555, -0.0832992, -0.0214684, 0.995492, 1, 1, 1 )
tracks/25/type = "transform"
tracks/25/path = NodePath("Character/Skeleton:mixamorig_RightLeg")
tracks/25/interp = 1
tracks/25/loop_wrap = true
tracks/25/imported = false
tracks/25/enabled = true
tracks/25/keys = PoolRealArray( 0, 1, 2.80142e-06, 0, 4.76837e-07, -0.0577183, -0.055748, -0.0194841, 0.996585, 1, 1, 1, 0.0666667, 1, 2.80142e-06, 0, 4.76837e-07, 0.00766932, -0.0681038, -0.0260524, 0.997309, 1, 1, 1, 0.133333, 1, 2.86102e-06, 0, 4.76837e-07, 0.0852315, -0.0849576, -0.0169884, 0.992587, 1, 1, 1, 0.2, 1, 2.86102e-06, 0, 4.76837e-07, 0.0646022, -0.046005, -0.0103714, 0.996796, 1, 1, 1, 0.266667, 1, 2.86102e-06, 0, 4.76837e-07, 0.0515899, -0.0407485, -0.0300386, 0.997384, 1, 1, 1, 0.333333, 1, 2.86102e-06, 0, 0, -0.162059, -0.0726328, -0.0567821, 0.982465, 1, 1, 1, 0.4, 1, 2.86102e-06, 0, 0, -0.457244, -0.0337695, -0.0673525, 0.886144, 1, 1, 1, 0.466667, 1, 2.86102e-06, 0, 0, -0.5228, 0.0388992, -0.0771724, 0.848063, 1, 1, 1, 0.533333, 1, 2.98023e-06, 0, 0, -0.479356, -0.016024, -0.00739784, 0.877443, 1, 1, 1, 0.6, 1, 2.92063e-06, -1.90735e-06, -4.76837e-07, -0.378492, -0.0205333, 0.010462, 0.925318, 1, 1, 1, 0.666667, 1, 2.92063e-06, -1.90735e-06, -4.76837e-07, -0.199583, -0.00252126, -0.0221751, 0.979627, 1, 1, 1, 0.733333, 1, 2.92063e-06, -1.90735e-06, -4.76837e-07, -0.129414, -0.0135273, -0.040841, 0.990657, 1, 1, 1, 0.8, 1, 2.92063e-06, -1.90735e-06, -4.76837e-07, -0.112464, -0.00955499, -0.0267556, 0.99325, 1, 1, 1, 0.866667, 1, 2.92063e-06, -1.90735e-06, -9.53674e-07, -0.143234, -0.0327227, 0.0185717, 0.988973, 1, 1, 1, 0.933333, 1, 2.98023e-06, -1.90735e-06, -9.53674e-07, -0.285926, -0.0364394, 0.0404228, 0.956705, 1, 1, 1, 1, 1, 2.98023e-06, -1.90735e-06, -9.53674e-07, -0.223478, -0.0435399, 0.0172507, 0.973583, 1, 1, 1, 1.06667, 1, 2.98023e-06, -1.90735e-06, -9.53674e-07, -0.0577171, -0.0557481, -0.0194841, 0.996585, 1, 1, 1 )
tracks/26/type = "transform"
tracks/26/path = NodePath("Character/Skeleton:mixamorig_RightUpLeg")
tracks/26/interp = 1
tracks/26/loop_wrap = true
tracks/26/imported = false
tracks/26/enabled = true
tracks/26/keys = PoolRealArray( 0, 1, 0, 0, -2.38419e-07, 0.0618567, -0.0494426, 0.0832396, 0.993378, 1, 0.999999, 0.999999, 0.0666667, 1, 0, 0, -2.38419e-07, 0.0029703, -0.0487508, 0.0742663, 0.996042, 1, 0.999999, 0.999999, 0.133333, 1, 0, 0, -2.38419e-07, -0.0882823, -0.0265882, 0.0686775, 0.993369, 1, 0.999999, 0.999999, 0.2, 1, 0, 0, -2.38419e-07, -0.148394, -0.0166873, 0.0563156, 0.987183, 1, 0.999999, 0.999999, 0.266667, 1, 0, 0, -2.38419e-07, -0.217622, -0.0125254, 0.0187674, 0.975772, 1, 1, 0.999999, 0.333333, 1, 0, 0, -2.38419e-07, -0.186767, -0.00696014, -0.0222119, 0.982128, 1, 1, 0.999999, 0.4, 1, 0, 0, -2.38419e-07, 0.0616629, -0.0493542, -0.0636498, 0.994842, 1, 1, 0.999999, 0.466667, 1, 0, 0, -2.38419e-07, 0.183045, -0.0408806, -0.0286644, 0.981836, 1, 1, 0.999999, 0.533333, 1, 0, 0, -2.38419e-07, 0.251368, -0.00973717, 0.00954411, 0.967796, 1, 0.999999, 0.999999, 0.6, 1, 0, 0, -2.38419e-07, 0.293801, -0.00192088, 0.0170054, 0.955714, 1, 0.999999, 0.999999, 0.666667, 1, 0, 0, -2.38419e-07, 0.318027, -0.0177361, 0.0406236, 0.947045, 1, 0.999999, 0.999999, 0.733333, 1, 0, 0, -2.38419e-07, 0.332032, -0.0192979, 0.0581736, 0.941275, 1, 0.999999, 0.999999, 0.8, 1, 0, 0, -2.38419e-07, 0.334557, -0.0241261, 0.0736547, 0.939183, 1, 0.999999, 0.999999, 0.866667, 1, 0, 0, -2.38419e-07, 0.306908, -0.019782, 0.0778264, 0.948345, 1, 0.999999, 0.999999, 0.933333, 1, 0, 0, -2.38419e-07, 0.305118, -0.00932269, 0.0900396, 0.948003, 1, 0.999999, 0.999999, 1, 1, 0, 0, -2.38419e-07, 0.201192, -0.0332144, 0.0912441, 0.974727, 1, 0.999999, 0.999999, 1.06667, 1, 0, 0, -2.38419e-07, 0.0618562, -0.0494426, 0.0832396, 0.993378, 1, 0.999999, 0.999999 )
tracks/27/type = "transform"
tracks/27/path = NodePath("Character/Skeleton:mixamorig_Hips")
tracks/27/interp = 1
tracks/27/loop_wrap = true
tracks/27/imported = false
tracks/27/enabled = true
tracks/27/keys = PoolRealArray( 0, 1, -0.0805629, 0.0869598, 0.148915, 0.0301064, 0.0176469, 0.00979896, 0.999343, 1, 1, 1, 0.0666667, 1, -0.0919028, 0.565262, -0.257192, 0.035371, 0.0135532, 0.0141145, 0.999183, 1, 1, 1, 0.133333, 1, 0.167832, 0.0472755, -1.0102, 0.0449753, -0.00098992, -0.00116457, 0.998987, 1, 1, 1, 0.2, 1, 0.489387, -1.63636, -1.17449, 0.0486225, -0.0231236, -0.0186345, 0.998376, 1, 1, 1, 0.266667, 1, 0.945085, -2.6694, -0.597628, 0.0404715, -0.0263026, -0.0115099, 0.998768, 1, 1, 1, 0.333333, 1, 1.79335, -3.48258, 1.16812, 0.0278807, -0.0169047, -0.00602785, 0.99945, 1, 1, 1, 0.4, 1, 1.84434, -4.79486, 0.67619, 0.017667, -0.00633149, 0.0156171, 0.999702, 1, 1, 1, 0.466667, 1, 2.27195, -3.31107, 0.965837, 0.0106387, 0.00760244, 0.0184285, 0.999745, 1, 1, 1, 0.533333, 1, 2.24492, -1.10268, 0.849309, 0.00624032, 0.021592, 0.0141585, 0.999647, 1, 1, 1, 0.6, 1, 2.16773, 0.433125, 0.350649, 0.00828655, 0.0340884, 0.00978709, 0.999337, 1, 1, 1, 0.666667, 1, 1.79172, -0.180965, -0.0850995, 0.0199815, 0.0478155, 0.0212231, 0.998431, 1, 1, 1, 0.733333, 1, 1.29424, -1.8611, 0.151658, 0.0356783, 0.0635811, 0.0360472, 0.996687, 1, 1, 1, 0.8, 1, 0.65877, -2.71384, 1.08232, 0.0291037, 0.0579195, 0.0249972, 0.997584, 1, 1, 1, 0.866667, 1, -0.00775641, -3.29429, 2.05151, 0.0257307, 0.046767, 0.0136797, 0.998481, 1, 1, 1, 0.933333, 1, -0.172801, -4.24999, 1.34466, 0.0275267, 0.0368697, -0.00409213, 0.998933, 1, 1, 1, 1, 1, -0.277229, -2.12907, 1.08348, 0.0308525, 0.0263057, 0.00117016, 0.999177, 1, 1, 1, 1.06667, 1, -0.0805629, 0.0869598, 0.148915, 0.0301064, 0.0176468, 0.00979896, 0.999343, 1, 1, 1 )
