[gd_scene load_steps=5 format=2]

[ext_resource path="res://source/runtime/player/animations/playerIdle.tres" type="Animation" id=1]
[ext_resource path="res://assets/models/character/character.gltf" type="PackedScene" id=2]
[ext_resource path="res://source/runtime/player/player.gd" type="Script" id=3]

[sub_resource type="CapsuleShape" id=1]
radius = 0.486948
height = 1.01915

[node name="Player" type="KinematicBody"]
transform = Transform( 0.5, 0, 0, 0, 0.5, 0, 0, 0, 0.5, 0, 0, 0 )
script = ExtResource( 3 )

[node name="Skin" parent="." instance=ExtResource( 2 )]
transform = Transform( -1, 0, -8.74228e-08, 0, 1, 0, 8.74228e-08, 0, -1, 0, 0, -0.035556 )

[node name="AnimationPlayer" type="AnimationPlayer" parent="Skin"]
anims/playerIdle = ExtResource( 1 )

[node name="CollisionShape" type="CollisionShape" parent="."]
transform = Transform( 1, 0, 0, 0, -4.37114e-08, -1, 0, 1, -4.37114e-08, 0, 0.95, -0.00298238 )
shape = SubResource( 1 )

[node name="Head" type="Spatial" parent="."]
transform = Transform( 1, 0, 0, 0, 1, 0, 0, 0, 1, 0, 1.3, 0 )

[node name="Camera" type="Camera" parent="Head"]
